episode_reward_max,episode_reward_min,episode_reward_mean,episode_len_mean,episodes_this_iter,policy_reward_mean,custom_metrics,sampler_perf,off_policy_estimator,num_metric_batches_dropped,info,timesteps_this_iter,done,timesteps_total,episodes_total,training_iteration,experiment_id,date,timestamp,time_this_iter_s,time_total_s,pid,hostname,node_ip,config,time_since_restore,timesteps_since_restore,iterations_since_restore,num_healthy_workers
23.05090587158013,-80.22771346929711,-11.363555219530015,150.0,632,{},{},"{'mean_env_wait_ms': 1.5227558762800475, 'mean_processing_ms': 1.1557396567070561, 'mean_inference_ms': 2.0202948974262473}",{},0,"{'min_exploration': 0.0, 'max_exploration': 0.4, 'num_target_updates': 4, 'num_steps_trained': 207872, 'num_steps_sampled': 263000, 'sample_throughput': 8624.695, 'train_throughput': 14719.479, 'num_weight_syncs': 655, 'num_samples_dropped': 55, 'learner_queue': {'size_count': 2459, 'size_mean': 0.26, 'size_std': 0.4386342439892262, 'size_quantiles': [0.0, 0.0, 0.0, 1.0, 1.0]}, 'replay_shard_0': {'add_batch_time_ms': 7.92, 'replay_time_ms': 33.548, 'update_priorities_time_ms': 86.205, 'policy_default_policy': {'added_count': 65000, 'sampled_count': 56320, 'est_size_bytes': 22165000, 'num_entries': 65000}}, 'learner': {'default_policy': {'mean_q': 2.28593111038208, 'max_q': 17.39934730529785, 'min_q': -11.13478946685791}}}",263000,False,263000,632,1,551d10f630db4ab0a22be0a16a50447a,2019-07-24_03-04-02,1563930242,30.54563593864441,30.54563593864441,32336,navel-notebook-1,10.16.128.63,"{'monitor': False, 'log_level': 'INFO', 'callbacks': {'on_episode_start': None, 'on_episode_step': None, 'on_episode_end': None, 'on_sample_end': None, 'on_train_result': None, 'on_postprocess_traj': None}, 'ignore_worker_failures': False, 'use_eager': False, 'model': {'conv_filters': None, 'conv_activation': 'relu', 'fcnet_activation': 'tanh', 'fcnet_hiddens': [256, 256], 'free_log_std': False, 'squash_to_range': False, 'use_lstm': False, 'max_seq_len': 20, 'lstm_cell_size': 256, 'lstm_use_prev_action_reward': False, 'framestack': True, 'dim': 84, 'grayscale': False, 'zero_mean': True, 'custom_preprocessor': None, 'custom_model': None, 'custom_options': {}}, 'optimizer': {'max_weight_sync_delay': 400, 'num_replay_buffer_shards': 4, 'debug': False}, 'gamma': 0.99, 'horizon': None, 'soft_horizon': False, 'env_config': {'env_type': 'openai'}, 'env': 'RoboschoolReacher-v1', 'clip_rewards': False, 'clip_actions': True, 'preprocessor_pref': 'deepmind', 'lr': 0.0001, 'evaluation_interval': 5, 'evaluation_num_episodes': 10, 'evaluation_config': {'exploration_fraction': 0, 'exploration_final_eps': 0}, 'num_workers': 11, 'num_gpus': 1, 'num_cpus_per_worker': 1, 'num_gpus_per_worker': 0, 'custom_resources_per_worker': {}, 'num_cpus_for_driver': 1, 'num_envs_per_worker': 4, 'sample_batch_size': 50, 'train_batch_size': 512, 'batch_mode': 'truncate_episodes', 'sample_async': False, 'observation_filter': 'NoFilter', 'synchronize_filters': True, 'tf_session_args': {'intra_op_parallelism_threads': 2, 'inter_op_parallelism_threads': 2, 'gpu_options': {'allow_growth': True}, 'log_device_placement': False, 'device_count': {'CPU': 1}, 'allow_soft_placement': True}, 'local_tf_session_args': {'intra_op_parallelism_threads': 8, 'inter_op_parallelism_threads': 8}, 'compress_observations': False, 'collect_metrics_timeout': 180, 'metrics_smoothing_episodes': 100, 'remote_worker_envs': False, 'remote_env_batch_wait_ms': 0, 'min_iter_time_s': 30, 'timesteps_per_iteration': 25000, 'input': 'sampler', 'input_evaluation': ['is', 'wis'], 'postprocess_inputs': False, 'shuffle_buffer_size': 0, 'output': None, 'output_compress_columns': ['obs', 'new_obs'], 'output_max_file_size': 67108864, 'multiagent': {'policies': {}, 'policy_mapping_fn': None, 'policies_to_train': None}, 'twin_q': False, 'policy_delay': 1, 'smooth_target_policy': False, 'target_noise': 0.2, 'target_noise_clip': 0.5, 'use_state_preprocessor': False, 'actor_hiddens': [400, 300], 'actor_hidden_activation': 'relu', 'critic_hiddens': [400, 300], 'critic_hidden_activation': 'relu', 'n_step': 3, 'exploration_should_anneal': False, 'schedule_max_timesteps': 100000, 'exploration_fraction': 0.1, 'exploration_final_scale': 0.02, 'exploration_noise_type': 'ou', 'exploration_ou_noise_scale': 1.0, 'exploration_ou_theta': 0.15, 'exploration_ou_sigma': 0.2, 'exploration_gaussian_sigma': 0.1, 'parameter_noise': False, 'pure_exploration_steps': 1000, 'buffer_size': 2000000, 'prioritized_replay': True, 'prioritized_replay_alpha': 0.6, 'prioritized_replay_beta': 0.4, 'beta_annealing_fraction': 0.2, 'final_prioritized_replay_beta': 0.4, 'prioritized_replay_eps': 1e-06, 'critic_lr': 0.001, 'actor_lr': 0.001, 'target_network_update_freq': 50000, 'tau': 1.0, 'use_huber': True, 'huber_threshold': 1.0, 'l2_reg': 1e-06, 'grad_norm_clipping': None, 'learning_starts': 50000, 'per_worker_exploration': True, 'worker_side_prioritization': True}",30.54563593864441,263000,1,11
14.570192101993554,-99.01647040988375,-11.627082487931693,150.0,624,{},{},"{'mean_env_wait_ms': 1.5321281291620175, 'mean_processing_ms': 1.1550875058679775, 'mean_inference_ms': 2.1118208328025743}",{},0,"{'min_exploration': 0.0, 'max_exploration': 0.4, 'num_target_updates': 8, 'num_steps_trained': 446464, 'num_steps_sampled': 519800, 'sample_throughput': 4498.83, 'train_throughput': 0.0, 'num_weight_syncs': 1297, 'num_samples_dropped': 55, 'learner_queue': {'size_count': 2926, 'size_mean': 0.18, 'size_std': 0.4331281565541544, 'size_quantiles': [0.0, 0.0, 0.0, 1.0, 2.0]}, 'replay_shard_0': {'add_batch_time_ms': 8.847, 'replay_time_ms': 36.9, 'update_priorities_time_ms': 116.995, 'policy_default_policy': {'added_count': 132600, 'sampled_count': 117248, 'est_size_bytes': 45216600, 'num_entries': 132600}}, 'learner': {'default_policy': {'mean_q': 3.1105875968933105, 'max_q': 25.76807975769043, 'min_q': -14.40117359161377}}}",256800,False,519800,1256,2,551d10f630db4ab0a22be0a16a50447a,2019-07-24_03-04-32,1563930272,30.50412130355835,61.04975724220276,32336,navel-notebook-1,10.16.128.63,"{'monitor': False, 'log_level': 'INFO', 'callbacks': {'on_episode_start': None, 'on_episode_step': None, 'on_episode_end': None, 'on_sample_end': None, 'on_train_result': None, 'on_postprocess_traj': None}, 'ignore_worker_failures': False, 'use_eager': False, 'model': {'conv_filters': None, 'conv_activation': 'relu', 'fcnet_activation': 'tanh', 'fcnet_hiddens': [256, 256], 'free_log_std': False, 'squash_to_range': False, 'use_lstm': False, 'max_seq_len': 20, 'lstm_cell_size': 256, 'lstm_use_prev_action_reward': False, 'framestack': True, 'dim': 84, 'grayscale': False, 'zero_mean': True, 'custom_preprocessor': None, 'custom_model': None, 'custom_options': {}}, 'optimizer': {'max_weight_sync_delay': 400, 'num_replay_buffer_shards': 4, 'debug': False}, 'gamma': 0.99, 'horizon': None, 'soft_horizon': False, 'env_config': {'env_type': 'openai'}, 'env': 'RoboschoolReacher-v1', 'clip_rewards': False, 'clip_actions': True, 'preprocessor_pref': 'deepmind', 'lr': 0.0001, 'evaluation_interval': 5, 'evaluation_num_episodes': 10, 'evaluation_config': {'exploration_fraction': 0, 'exploration_final_eps': 0}, 'num_workers': 11, 'num_gpus': 1, 'num_cpus_per_worker': 1, 'num_gpus_per_worker': 0, 'custom_resources_per_worker': {}, 'num_cpus_for_driver': 1, 'num_envs_per_worker': 4, 'sample_batch_size': 50, 'train_batch_size': 512, 'batch_mode': 'truncate_episodes', 'sample_async': False, 'observation_filter': 'NoFilter', 'synchronize_filters': True, 'tf_session_args': {'intra_op_parallelism_threads': 2, 'inter_op_parallelism_threads': 2, 'gpu_options': {'allow_growth': True}, 'log_device_placement': False, 'device_count': {'CPU': 1}, 'allow_soft_placement': True}, 'local_tf_session_args': {'intra_op_parallelism_threads': 8, 'inter_op_parallelism_threads': 8}, 'compress_observations': False, 'collect_metrics_timeout': 180, 'metrics_smoothing_episodes': 100, 'remote_worker_envs': False, 'remote_env_batch_wait_ms': 0, 'min_iter_time_s': 30, 'timesteps_per_iteration': 25000, 'input': 'sampler', 'input_evaluation': ['is', 'wis'], 'postprocess_inputs': False, 'shuffle_buffer_size': 0, 'output': None, 'output_compress_columns': ['obs', 'new_obs'], 'output_max_file_size': 67108864, 'multiagent': {'policies': {}, 'policy_mapping_fn': None, 'policies_to_train': None}, 'twin_q': False, 'policy_delay': 1, 'smooth_target_policy': False, 'target_noise': 0.2, 'target_noise_clip': 0.5, 'use_state_preprocessor': False, 'actor_hiddens': [400, 300], 'actor_hidden_activation': 'relu', 'critic_hiddens': [400, 300], 'critic_hidden_activation': 'relu', 'n_step': 3, 'exploration_should_anneal': False, 'schedule_max_timesteps': 100000, 'exploration_fraction': 0.1, 'exploration_final_scale': 0.02, 'exploration_noise_type': 'ou', 'exploration_ou_noise_scale': 1.0, 'exploration_ou_theta': 0.15, 'exploration_ou_sigma': 0.2, 'exploration_gaussian_sigma': 0.1, 'parameter_noise': False, 'pure_exploration_steps': 1000, 'buffer_size': 2000000, 'prioritized_replay': True, 'prioritized_replay_alpha': 0.6, 'prioritized_replay_beta': 0.4, 'beta_annealing_fraction': 0.2, 'final_prioritized_replay_beta': 0.4, 'prioritized_replay_eps': 1e-06, 'critic_lr': 0.001, 'actor_lr': 0.001, 'target_network_update_freq': 50000, 'tau': 1.0, 'use_huber': True, 'huber_threshold': 1.0, 'l2_reg': 1e-06, 'grad_norm_clipping': None, 'learning_starts': 50000, 'per_worker_exploration': True, 'worker_side_prioritization': True}",61.04975724220276,519800,2,11
31.684558949167283,-42.00903686673566,4.117119495973449,150.0,632,{},{},"{'mean_env_wait_ms': 1.5350696185306405, 'mean_processing_ms': 1.1595658480445155, 'mean_inference_ms': 2.1311864282941984}",{},0,"{'min_exploration': 0.0, 'max_exploration': 0.4, 'num_target_updates': 13, 'num_steps_trained': 679936, 'num_steps_sampled': 779600, 'sample_throughput': 9998.52, 'train_throughput': 12798.105, 'num_weight_syncs': 1948, 'num_samples_dropped': 55, 'learner_queue': {'size_count': 3382, 'size_mean': 0.12, 'size_std': 0.32496153618543844, 'size_quantiles': [0.0, 0.0, 0.0, 1.0, 1.0]}, 'replay_shard_0': {'add_batch_time_ms': 6.078, 'replay_time_ms': 31.758, 'update_priorities_time_ms': 109.318, 'policy_default_policy': {'added_count': 196400, 'sampled_count': 176128, 'est_size_bytes': 66972400, 'num_entries': 196400}}, 'learner': {'default_policy': {'mean_q': 4.683382987976074, 'max_q': 24.154687881469727, 'min_q': -10.017040252685547}}}",259800,False,779600,1888,3,551d10f630db4ab0a22be0a16a50447a,2019-07-24_03-05-03,1563930303,30.582947254180908,91.63270449638367,32336,navel-notebook-1,10.16.128.63,"{'monitor': False, 'log_level': 'INFO', 'callbacks': {'on_episode_start': None, 'on_episode_step': None, 'on_episode_end': None, 'on_sample_end': None, 'on_train_result': None, 'on_postprocess_traj': None}, 'ignore_worker_failures': False, 'use_eager': False, 'model': {'conv_filters': None, 'conv_activation': 'relu', 'fcnet_activation': 'tanh', 'fcnet_hiddens': [256, 256], 'free_log_std': False, 'squash_to_range': False, 'use_lstm': False, 'max_seq_len': 20, 'lstm_cell_size': 256, 'lstm_use_prev_action_reward': False, 'framestack': True, 'dim': 84, 'grayscale': False, 'zero_mean': True, 'custom_preprocessor': None, 'custom_model': None, 'custom_options': {}}, 'optimizer': {'max_weight_sync_delay': 400, 'num_replay_buffer_shards': 4, 'debug': False}, 'gamma': 0.99, 'horizon': None, 'soft_horizon': False, 'env_config': {'env_type': 'openai'}, 'env': 'RoboschoolReacher-v1', 'clip_rewards': False, 'clip_actions': True, 'preprocessor_pref': 'deepmind', 'lr': 0.0001, 'evaluation_interval': 5, 'evaluation_num_episodes': 10, 'evaluation_config': {'exploration_fraction': 0, 'exploration_final_eps': 0}, 'num_workers': 11, 'num_gpus': 1, 'num_cpus_per_worker': 1, 'num_gpus_per_worker': 0, 'custom_resources_per_worker': {}, 'num_cpus_for_driver': 1, 'num_envs_per_worker': 4, 'sample_batch_size': 50, 'train_batch_size': 512, 'batch_mode': 'truncate_episodes', 'sample_async': False, 'observation_filter': 'NoFilter', 'synchronize_filters': True, 'tf_session_args': {'intra_op_parallelism_threads': 2, 'inter_op_parallelism_threads': 2, 'gpu_options': {'allow_growth': True}, 'log_device_placement': False, 'device_count': {'CPU': 1}, 'allow_soft_placement': True}, 'local_tf_session_args': {'intra_op_parallelism_threads': 8, 'inter_op_parallelism_threads': 8}, 'compress_observations': False, 'collect_metrics_timeout': 180, 'metrics_smoothing_episodes': 100, 'remote_worker_envs': False, 'remote_env_batch_wait_ms': 0, 'min_iter_time_s': 30, 'timesteps_per_iteration': 25000, 'input': 'sampler', 'input_evaluation': ['is', 'wis'], 'postprocess_inputs': False, 'shuffle_buffer_size': 0, 'output': None, 'output_compress_columns': ['obs', 'new_obs'], 'output_max_file_size': 67108864, 'multiagent': {'policies': {}, 'policy_mapping_fn': None, 'policies_to_train': None}, 'twin_q': False, 'policy_delay': 1, 'smooth_target_policy': False, 'target_noise': 0.2, 'target_noise_clip': 0.5, 'use_state_preprocessor': False, 'actor_hiddens': [400, 300], 'actor_hidden_activation': 'relu', 'critic_hiddens': [400, 300], 'critic_hidden_activation': 'relu', 'n_step': 3, 'exploration_should_anneal': False, 'schedule_max_timesteps': 100000, 'exploration_fraction': 0.1, 'exploration_final_scale': 0.02, 'exploration_noise_type': 'ou', 'exploration_ou_noise_scale': 1.0, 'exploration_ou_theta': 0.15, 'exploration_ou_sigma': 0.2, 'exploration_gaussian_sigma': 0.1, 'parameter_noise': False, 'pure_exploration_steps': 1000, 'buffer_size': 2000000, 'prioritized_replay': True, 'prioritized_replay_alpha': 0.6, 'prioritized_replay_beta': 0.4, 'beta_annealing_fraction': 0.2, 'final_prioritized_replay_beta': 0.4, 'prioritized_replay_eps': 1e-06, 'critic_lr': 0.001, 'actor_lr': 0.001, 'target_network_update_freq': 50000, 'tau': 1.0, 'use_huber': True, 'huber_threshold': 1.0, 'l2_reg': 1e-06, 'grad_norm_clipping': None, 'learning_starts': 50000, 'per_worker_exploration': True, 'worker_side_prioritization': True}",91.63270449638367,779600,3,11
38.58379685745347,-20.41425170384568,13.218373128533905,150.0,620,{},{},"{'mean_env_wait_ms': 1.5370846845120292, 'mean_processing_ms': 1.1639139601495487, 'mean_inference_ms': 2.1551520904054873}",{},0,"{'min_exploration': 0.0, 'max_exploration': 0.4, 'num_target_updates': 18, 'num_steps_trained': 923136, 'num_steps_sampled': 1034400, 'sample_throughput': 14141.043, 'train_throughput': 0.0, 'num_weight_syncs': 2583, 'num_samples_dropped': 55, 'learner_queue': {'size_count': 3857, 'size_mean': 1.48, 'size_std': 2.624804754643667, 'size_quantiles': [0.0, 0.0, 0.0, 7.0, 9.0]}, 'replay_shard_0': {'add_batch_time_ms': 8.409, 'replay_time_ms': 42.547, 'update_priorities_time_ms': 82.47, 'policy_default_policy': {'added_count': 261200, 'sampled_count': 238080, 'est_size_bytes': 89069200, 'num_entries': 261200}}, 'learner': {'default_policy': {'mean_q': 6.299330234527588, 'max_q': 31.1675968170166, 'min_q': -11.789386749267578}}}",254800,False,1034400,2508,4,551d10f630db4ab0a22be0a16a50447a,2019-07-24_03-05-33,1563930333,30.555996656417847,122.18870115280151,32336,navel-notebook-1,10.16.128.63,"{'monitor': False, 'log_level': 'INFO', 'callbacks': {'on_episode_start': None, 'on_episode_step': None, 'on_episode_end': None, 'on_sample_end': None, 'on_train_result': None, 'on_postprocess_traj': None}, 'ignore_worker_failures': False, 'use_eager': False, 'model': {'conv_filters': None, 'conv_activation': 'relu', 'fcnet_activation': 'tanh', 'fcnet_hiddens': [256, 256], 'free_log_std': False, 'squash_to_range': False, 'use_lstm': False, 'max_seq_len': 20, 'lstm_cell_size': 256, 'lstm_use_prev_action_reward': False, 'framestack': True, 'dim': 84, 'grayscale': False, 'zero_mean': True, 'custom_preprocessor': None, 'custom_model': None, 'custom_options': {}}, 'optimizer': {'max_weight_sync_delay': 400, 'num_replay_buffer_shards': 4, 'debug': False}, 'gamma': 0.99, 'horizon': None, 'soft_horizon': False, 'env_config': {'env_type': 'openai'}, 'env': 'RoboschoolReacher-v1', 'clip_rewards': False, 'clip_actions': True, 'preprocessor_pref': 'deepmind', 'lr': 0.0001, 'evaluation_interval': 5, 'evaluation_num_episodes': 10, 'evaluation_config': {'exploration_fraction': 0, 'exploration_final_eps': 0}, 'num_workers': 11, 'num_gpus': 1, 'num_cpus_per_worker': 1, 'num_gpus_per_worker': 0, 'custom_resources_per_worker': {}, 'num_cpus_for_driver': 1, 'num_envs_per_worker': 4, 'sample_batch_size': 50, 'train_batch_size': 512, 'batch_mode': 'truncate_episodes', 'sample_async': False, 'observation_filter': 'NoFilter', 'synchronize_filters': True, 'tf_session_args': {'intra_op_parallelism_threads': 2, 'inter_op_parallelism_threads': 2, 'gpu_options': {'allow_growth': True}, 'log_device_placement': False, 'device_count': {'CPU': 1}, 'allow_soft_placement': True}, 'local_tf_session_args': {'intra_op_parallelism_threads': 8, 'inter_op_parallelism_threads': 8}, 'compress_observations': False, 'collect_metrics_timeout': 180, 'metrics_smoothing_episodes': 100, 'remote_worker_envs': False, 'remote_env_batch_wait_ms': 0, 'min_iter_time_s': 30, 'timesteps_per_iteration': 25000, 'input': 'sampler', 'input_evaluation': ['is', 'wis'], 'postprocess_inputs': False, 'shuffle_buffer_size': 0, 'output': None, 'output_compress_columns': ['obs', 'new_obs'], 'output_max_file_size': 67108864, 'multiagent': {'policies': {}, 'policy_mapping_fn': None, 'policies_to_train': None}, 'twin_q': False, 'policy_delay': 1, 'smooth_target_policy': False, 'target_noise': 0.2, 'target_noise_clip': 0.5, 'use_state_preprocessor': False, 'actor_hiddens': [400, 300], 'actor_hidden_activation': 'relu', 'critic_hiddens': [400, 300], 'critic_hidden_activation': 'relu', 'n_step': 3, 'exploration_should_anneal': False, 'schedule_max_timesteps': 100000, 'exploration_fraction': 0.1, 'exploration_final_scale': 0.02, 'exploration_noise_type': 'ou', 'exploration_ou_noise_scale': 1.0, 'exploration_ou_theta': 0.15, 'exploration_ou_sigma': 0.2, 'exploration_gaussian_sigma': 0.1, 'parameter_noise': False, 'pure_exploration_steps': 1000, 'buffer_size': 2000000, 'prioritized_replay': True, 'prioritized_replay_alpha': 0.6, 'prioritized_replay_beta': 0.4, 'beta_annealing_fraction': 0.2, 'final_prioritized_replay_beta': 0.4, 'prioritized_replay_eps': 1e-06, 'critic_lr': 0.001, 'actor_lr': 0.001, 'target_network_update_freq': 50000, 'tau': 1.0, 'use_huber': True, 'huber_threshold': 1.0, 'l2_reg': 1e-06, 'grad_norm_clipping': None, 'learning_starts': 50000, 'per_worker_exploration': True, 'worker_side_prioritization': True}",122.18870115280151,1034400,4,11
39.32311904040879,-10.728351353459873,14.417647697837825,150.0,628,{},{},"{'mean_env_wait_ms': 1.538476142798748, 'mean_processing_ms': 1.1627629446904313, 'mean_inference_ms': 2.150757086256645}",{},0,"{'min_exploration': 0.0, 'max_exploration': 0.4, 'num_target_updates': 22, 'num_steps_trained': 1151488, 'num_steps_sampled': 1295200, 'sample_throughput': 8004.881, 'train_throughput': 6830.832, 'num_weight_syncs': 3235, 'num_samples_dropped': 55, 'learner_queue': {'size_count': 4302, 'size_mean': 0.22, 'size_std': 0.46, 'size_quantiles': [0.0, 0.0, 0.0, 1.0, 2.0]}, 'replay_shard_0': {'add_batch_time_ms': 7.892, 'replay_time_ms': 37.723, 'update_priorities_time_ms': 92.81, 'policy_default_policy': {'added_count': 325800, 'sampled_count': 292864, 'est_size_bytes': 111097800, 'num_entries': 325800}}, 'learner': {'default_policy': {'mean_q': 7.124833583831787, 'max_q': 30.140512466430664, 'min_q': -18.773483276367188}}}",260800,False,1295200,3136,5,551d10f630db4ab0a22be0a16a50447a,2019-07-24_03-06-04,1563930364,30.609715461730957,152.79841661453247,32336,navel-notebook-1,10.16.128.63,"{'monitor': False, 'log_level': 'INFO', 'callbacks': {'on_episode_start': None, 'on_episode_step': None, 'on_episode_end': None, 'on_sample_end': None, 'on_train_result': None, 'on_postprocess_traj': None}, 'ignore_worker_failures': False, 'use_eager': False, 'model': {'conv_filters': None, 'conv_activation': 'relu', 'fcnet_activation': 'tanh', 'fcnet_hiddens': [256, 256], 'free_log_std': False, 'squash_to_range': False, 'use_lstm': False, 'max_seq_len': 20, 'lstm_cell_size': 256, 'lstm_use_prev_action_reward': False, 'framestack': True, 'dim': 84, 'grayscale': False, 'zero_mean': True, 'custom_preprocessor': None, 'custom_model': None, 'custom_options': {}}, 'optimizer': {'max_weight_sync_delay': 400, 'num_replay_buffer_shards': 4, 'debug': False}, 'gamma': 0.99, 'horizon': None, 'soft_horizon': False, 'env_config': {'env_type': 'openai'}, 'env': 'RoboschoolReacher-v1', 'clip_rewards': False, 'clip_actions': True, 'preprocessor_pref': 'deepmind', 'lr': 0.0001, 'evaluation_interval': 5, 'evaluation_num_episodes': 10, 'evaluation_config': {'exploration_fraction': 0, 'exploration_final_eps': 0}, 'num_workers': 11, 'num_gpus': 1, 'num_cpus_per_worker': 1, 'num_gpus_per_worker': 0, 'custom_resources_per_worker': {}, 'num_cpus_for_driver': 1, 'num_envs_per_worker': 4, 'sample_batch_size': 50, 'train_batch_size': 512, 'batch_mode': 'truncate_episodes', 'sample_async': False, 'observation_filter': 'NoFilter', 'synchronize_filters': True, 'tf_session_args': {'intra_op_parallelism_threads': 2, 'inter_op_parallelism_threads': 2, 'gpu_options': {'allow_growth': True}, 'log_device_placement': False, 'device_count': {'CPU': 1}, 'allow_soft_placement': True}, 'local_tf_session_args': {'intra_op_parallelism_threads': 8, 'inter_op_parallelism_threads': 8}, 'compress_observations': False, 'collect_metrics_timeout': 180, 'metrics_smoothing_episodes': 100, 'remote_worker_envs': False, 'remote_env_batch_wait_ms': 0, 'min_iter_time_s': 30, 'timesteps_per_iteration': 25000, 'input': 'sampler', 'input_evaluation': ['is', 'wis'], 'postprocess_inputs': False, 'shuffle_buffer_size': 0, 'output': None, 'output_compress_columns': ['obs', 'new_obs'], 'output_max_file_size': 67108864, 'multiagent': {'policies': {}, 'policy_mapping_fn': None, 'policies_to_train': None}, 'twin_q': False, 'policy_delay': 1, 'smooth_target_policy': False, 'target_noise': 0.2, 'target_noise_clip': 0.5, 'use_state_preprocessor': False, 'actor_hiddens': [400, 300], 'actor_hidden_activation': 'relu', 'critic_hiddens': [400, 300], 'critic_hidden_activation': 'relu', 'n_step': 3, 'exploration_should_anneal': False, 'schedule_max_timesteps': 100000, 'exploration_fraction': 0.1, 'exploration_final_scale': 0.02, 'exploration_noise_type': 'ou', 'exploration_ou_noise_scale': 1.0, 'exploration_ou_theta': 0.15, 'exploration_ou_sigma': 0.2, 'exploration_gaussian_sigma': 0.1, 'parameter_noise': False, 'pure_exploration_steps': 1000, 'buffer_size': 2000000, 'prioritized_replay': True, 'prioritized_replay_alpha': 0.6, 'prioritized_replay_beta': 0.4, 'beta_annealing_fraction': 0.2, 'final_prioritized_replay_beta': 0.4, 'prioritized_replay_eps': 1e-06, 'critic_lr': 0.001, 'actor_lr': 0.001, 'target_network_update_freq': 50000, 'tau': 1.0, 'use_huber': True, 'huber_threshold': 1.0, 'l2_reg': 1e-06, 'grad_norm_clipping': None, 'learning_starts': 50000, 'per_worker_exploration': True, 'worker_side_prioritization': True}",152.79841661453247,1295200,5,11
38.31625367789644,-9.06400700609724,16.08382922888711,150.0,624,{},{},"{'mean_env_wait_ms': 1.541004502155606, 'mean_processing_ms': 1.1654132148205076, 'mean_inference_ms': 2.1566345539657967}",{},0,"{'min_exploration': 0.0, 'max_exploration': 0.4, 'num_target_updates': 27, 'num_steps_trained': 1387520, 'num_steps_sampled': 1552800, 'sample_throughput': 5874.622, 'train_throughput': 15039.033, 'num_weight_syncs': 3879, 'num_samples_dropped': 55, 'learner_queue': {'size_count': 4763, 'size_mean': 0.14, 'size_std': 0.3469870314579494, 'size_quantiles': [0.0, 0.0, 0.0, 1.0, 1.0]}, 'replay_shard_0': {'add_batch_time_ms': 13.397, 'replay_time_ms': 37.283, 'update_priorities_time_ms': 85.151, 'policy_default_policy': {'added_count': 387000, 'sampled_count': 354304, 'est_size_bytes': 131967000, 'num_entries': 387000}}, 'learner': {'default_policy': {'mean_q': 8.340381622314453, 'max_q': 35.902549743652344, 'min_q': -5.989341735839844}}}",257600,False,1552800,3760,6,551d10f630db4ab0a22be0a16a50447a,2019-07-24_03-06-35,1563930395,30.443100690841675,183.24151730537415,32336,navel-notebook-1,10.16.128.63,"{'monitor': False, 'log_level': 'INFO', 'callbacks': {'on_episode_start': None, 'on_episode_step': None, 'on_episode_end': None, 'on_sample_end': None, 'on_train_result': None, 'on_postprocess_traj': None}, 'ignore_worker_failures': False, 'use_eager': False, 'model': {'conv_filters': None, 'conv_activation': 'relu', 'fcnet_activation': 'tanh', 'fcnet_hiddens': [256, 256], 'free_log_std': False, 'squash_to_range': False, 'use_lstm': False, 'max_seq_len': 20, 'lstm_cell_size': 256, 'lstm_use_prev_action_reward': False, 'framestack': True, 'dim': 84, 'grayscale': False, 'zero_mean': True, 'custom_preprocessor': None, 'custom_model': None, 'custom_options': {}}, 'optimizer': {'max_weight_sync_delay': 400, 'num_replay_buffer_shards': 4, 'debug': False}, 'gamma': 0.99, 'horizon': None, 'soft_horizon': False, 'env_config': {'env_type': 'openai'}, 'env': 'RoboschoolReacher-v1', 'clip_rewards': False, 'clip_actions': True, 'preprocessor_pref': 'deepmind', 'lr': 0.0001, 'evaluation_interval': 5, 'evaluation_num_episodes': 10, 'evaluation_config': {'exploration_fraction': 0, 'exploration_final_eps': 0}, 'num_workers': 11, 'num_gpus': 1, 'num_cpus_per_worker': 1, 'num_gpus_per_worker': 0, 'custom_resources_per_worker': {}, 'num_cpus_for_driver': 1, 'num_envs_per_worker': 4, 'sample_batch_size': 50, 'train_batch_size': 512, 'batch_mode': 'truncate_episodes', 'sample_async': False, 'observation_filter': 'NoFilter', 'synchronize_filters': True, 'tf_session_args': {'intra_op_parallelism_threads': 2, 'inter_op_parallelism_threads': 2, 'gpu_options': {'allow_growth': True}, 'log_device_placement': False, 'device_count': {'CPU': 1}, 'allow_soft_placement': True}, 'local_tf_session_args': {'intra_op_parallelism_threads': 8, 'inter_op_parallelism_threads': 8}, 'compress_observations': False, 'collect_metrics_timeout': 180, 'metrics_smoothing_episodes': 100, 'remote_worker_envs': False, 'remote_env_batch_wait_ms': 0, 'min_iter_time_s': 30, 'timesteps_per_iteration': 25000, 'input': 'sampler', 'input_evaluation': ['is', 'wis'], 'postprocess_inputs': False, 'shuffle_buffer_size': 0, 'output': None, 'output_compress_columns': ['obs', 'new_obs'], 'output_max_file_size': 67108864, 'multiagent': {'policies': {}, 'policy_mapping_fn': None, 'policies_to_train': None}, 'twin_q': False, 'policy_delay': 1, 'smooth_target_policy': False, 'target_noise': 0.2, 'target_noise_clip': 0.5, 'use_state_preprocessor': False, 'actor_hiddens': [400, 300], 'actor_hidden_activation': 'relu', 'critic_hiddens': [400, 300], 'critic_hidden_activation': 'relu', 'n_step': 3, 'exploration_should_anneal': False, 'schedule_max_timesteps': 100000, 'exploration_fraction': 0.1, 'exploration_final_scale': 0.02, 'exploration_noise_type': 'ou', 'exploration_ou_noise_scale': 1.0, 'exploration_ou_theta': 0.15, 'exploration_ou_sigma': 0.2, 'exploration_gaussian_sigma': 0.1, 'parameter_noise': False, 'pure_exploration_steps': 1000, 'buffer_size': 2000000, 'prioritized_replay': True, 'prioritized_replay_alpha': 0.6, 'prioritized_replay_beta': 0.4, 'beta_annealing_fraction': 0.2, 'final_prioritized_replay_beta': 0.4, 'prioritized_replay_eps': 1e-06, 'critic_lr': 0.001, 'actor_lr': 0.001, 'target_network_update_freq': 50000, 'tau': 1.0, 'use_huber': True, 'huber_threshold': 1.0, 'l2_reg': 1e-06, 'grad_norm_clipping': None, 'learning_starts': 50000, 'per_worker_exploration': True, 'worker_side_prioritization': True}",183.24151730537415,1552800,6,11
38.57126316120806,-26.19116396958546,16.545725491915473,150.0,628,{},{},"{'mean_env_wait_ms': 1.5393919521455293, 'mean_processing_ms': 1.1648626298579892, 'mean_inference_ms': 2.1614319449694026}",{},0,"{'min_exploration': 0.0, 'max_exploration': 0.4, 'num_target_updates': 32, 'num_steps_trained': 1621504, 'num_steps_sampled': 1810000, 'sample_throughput': 10307.505, 'train_throughput': 0.0, 'num_weight_syncs': 4521, 'num_samples_dropped': 55, 'learner_queue': {'size_count': 5221, 'size_mean': 0.26, 'size_std': 0.5219195340279956, 'size_quantiles': [0.0, 0.0, 0.0, 1.0, 2.0]}, 'replay_shard_0': {'add_batch_time_ms': 8.707, 'replay_time_ms': 36.436, 'update_priorities_time_ms': 85.387, 'policy_default_policy': {'added_count': 446200, 'sampled_count': 414720, 'est_size_bytes': 152154200, 'num_entries': 446200}}, 'learner': {'default_policy': {'mean_q': 7.926055431365967, 'max_q': 31.978878021240234, 'min_q': -3.2893550395965576}}}",257200,False,1810000,4388,7,551d10f630db4ab0a22be0a16a50447a,2019-07-24_03-07-06,1563930426,30.536180019378662,213.7776973247528,32336,navel-notebook-1,10.16.128.63,"{'monitor': False, 'log_level': 'INFO', 'callbacks': {'on_episode_start': None, 'on_episode_step': None, 'on_episode_end': None, 'on_sample_end': None, 'on_train_result': None, 'on_postprocess_traj': None}, 'ignore_worker_failures': False, 'use_eager': False, 'model': {'conv_filters': None, 'conv_activation': 'relu', 'fcnet_activation': 'tanh', 'fcnet_hiddens': [256, 256], 'free_log_std': False, 'squash_to_range': False, 'use_lstm': False, 'max_seq_len': 20, 'lstm_cell_size': 256, 'lstm_use_prev_action_reward': False, 'framestack': True, 'dim': 84, 'grayscale': False, 'zero_mean': True, 'custom_preprocessor': None, 'custom_model': None, 'custom_options': {}}, 'optimizer': {'max_weight_sync_delay': 400, 'num_replay_buffer_shards': 4, 'debug': False}, 'gamma': 0.99, 'horizon': None, 'soft_horizon': False, 'env_config': {'env_type': 'openai'}, 'env': 'RoboschoolReacher-v1', 'clip_rewards': False, 'clip_actions': True, 'preprocessor_pref': 'deepmind', 'lr': 0.0001, 'evaluation_interval': 5, 'evaluation_num_episodes': 10, 'evaluation_config': {'exploration_fraction': 0, 'exploration_final_eps': 0}, 'num_workers': 11, 'num_gpus': 1, 'num_cpus_per_worker': 1, 'num_gpus_per_worker': 0, 'custom_resources_per_worker': {}, 'num_cpus_for_driver': 1, 'num_envs_per_worker': 4, 'sample_batch_size': 50, 'train_batch_size': 512, 'batch_mode': 'truncate_episodes', 'sample_async': False, 'observation_filter': 'NoFilter', 'synchronize_filters': True, 'tf_session_args': {'intra_op_parallelism_threads': 2, 'inter_op_parallelism_threads': 2, 'gpu_options': {'allow_growth': True}, 'log_device_placement': False, 'device_count': {'CPU': 1}, 'allow_soft_placement': True}, 'local_tf_session_args': {'intra_op_parallelism_threads': 8, 'inter_op_parallelism_threads': 8}, 'compress_observations': False, 'collect_metrics_timeout': 180, 'metrics_smoothing_episodes': 100, 'remote_worker_envs': False, 'remote_env_batch_wait_ms': 0, 'min_iter_time_s': 30, 'timesteps_per_iteration': 25000, 'input': 'sampler', 'input_evaluation': ['is', 'wis'], 'postprocess_inputs': False, 'shuffle_buffer_size': 0, 'output': None, 'output_compress_columns': ['obs', 'new_obs'], 'output_max_file_size': 67108864, 'multiagent': {'policies': {}, 'policy_mapping_fn': None, 'policies_to_train': None}, 'twin_q': False, 'policy_delay': 1, 'smooth_target_policy': False, 'target_noise': 0.2, 'target_noise_clip': 0.5, 'use_state_preprocessor': False, 'actor_hiddens': [400, 300], 'actor_hidden_activation': 'relu', 'critic_hiddens': [400, 300], 'critic_hidden_activation': 'relu', 'n_step': 3, 'exploration_should_anneal': False, 'schedule_max_timesteps': 100000, 'exploration_fraction': 0.1, 'exploration_final_scale': 0.02, 'exploration_noise_type': 'ou', 'exploration_ou_noise_scale': 1.0, 'exploration_ou_theta': 0.15, 'exploration_ou_sigma': 0.2, 'exploration_gaussian_sigma': 0.1, 'parameter_noise': False, 'pure_exploration_steps': 1000, 'buffer_size': 2000000, 'prioritized_replay': True, 'prioritized_replay_alpha': 0.6, 'prioritized_replay_beta': 0.4, 'beta_annealing_fraction': 0.2, 'final_prioritized_replay_beta': 0.4, 'prioritized_replay_eps': 1e-06, 'critic_lr': 0.001, 'actor_lr': 0.001, 'target_network_update_freq': 50000, 'tau': 1.0, 'use_huber': True, 'huber_threshold': 1.0, 'l2_reg': 1e-06, 'grad_norm_clipping': None, 'learning_starts': 50000, 'per_worker_exploration': True, 'worker_side_prioritization': True}",213.7776973247528,1810000,7,11
38.004305173716375,-13.126802605365384,15.752574774930123,150.0,632,{},{},"{'mean_env_wait_ms': 1.537786550022671, 'mean_processing_ms': 1.1644166184541596, 'mean_inference_ms': 2.158682287998192}",{},0,"{'min_exploration': 0.0, 'max_exploration': 0.4, 'num_target_updates': 36, 'num_steps_trained': 1846272, 'num_steps_sampled': 2071600, 'sample_throughput': 9861.912, 'train_throughput': 8415.498, 'num_weight_syncs': 5177, 'num_samples_dropped': 55, 'learner_queue': {'size_count': 5659, 'size_mean': 0.26, 'size_std': 0.482078831727758, 'size_quantiles': [0.0, 0.0, 0.0, 1.0, 2.0]}, 'replay_shard_0': {'add_batch_time_ms': 5.887, 'replay_time_ms': 33.736, 'update_priorities_time_ms': 103.368, 'policy_default_policy': {'added_count': 512200, 'sampled_count': 470016, 'est_size_bytes': 170500000, 'num_entries': 500000}}, 'learner': {'default_policy': {'mean_q': 8.840719223022461, 'max_q': 34.76227951049805, 'min_q': -17.265243530273438}}}",261600,False,2071600,5020,8,551d10f630db4ab0a22be0a16a50447a,2019-07-24_03-07-36,1563930456,30.56500005722046,244.34269738197327,32336,navel-notebook-1,10.16.128.63,"{'monitor': False, 'log_level': 'INFO', 'callbacks': {'on_episode_start': None, 'on_episode_step': None, 'on_episode_end': None, 'on_sample_end': None, 'on_train_result': None, 'on_postprocess_traj': None}, 'ignore_worker_failures': False, 'use_eager': False, 'model': {'conv_filters': None, 'conv_activation': 'relu', 'fcnet_activation': 'tanh', 'fcnet_hiddens': [256, 256], 'free_log_std': False, 'squash_to_range': False, 'use_lstm': False, 'max_seq_len': 20, 'lstm_cell_size': 256, 'lstm_use_prev_action_reward': False, 'framestack': True, 'dim': 84, 'grayscale': False, 'zero_mean': True, 'custom_preprocessor': None, 'custom_model': None, 'custom_options': {}}, 'optimizer': {'max_weight_sync_delay': 400, 'num_replay_buffer_shards': 4, 'debug': False}, 'gamma': 0.99, 'horizon': None, 'soft_horizon': False, 'env_config': {'env_type': 'openai'}, 'env': 'RoboschoolReacher-v1', 'clip_rewards': False, 'clip_actions': True, 'preprocessor_pref': 'deepmind', 'lr': 0.0001, 'evaluation_interval': 5, 'evaluation_num_episodes': 10, 'evaluation_config': {'exploration_fraction': 0, 'exploration_final_eps': 0}, 'num_workers': 11, 'num_gpus': 1, 'num_cpus_per_worker': 1, 'num_gpus_per_worker': 0, 'custom_resources_per_worker': {}, 'num_cpus_for_driver': 1, 'num_envs_per_worker': 4, 'sample_batch_size': 50, 'train_batch_size': 512, 'batch_mode': 'truncate_episodes', 'sample_async': False, 'observation_filter': 'NoFilter', 'synchronize_filters': True, 'tf_session_args': {'intra_op_parallelism_threads': 2, 'inter_op_parallelism_threads': 2, 'gpu_options': {'allow_growth': True}, 'log_device_placement': False, 'device_count': {'CPU': 1}, 'allow_soft_placement': True}, 'local_tf_session_args': {'intra_op_parallelism_threads': 8, 'inter_op_parallelism_threads': 8}, 'compress_observations': False, 'collect_metrics_timeout': 180, 'metrics_smoothing_episodes': 100, 'remote_worker_envs': False, 'remote_env_batch_wait_ms': 0, 'min_iter_time_s': 30, 'timesteps_per_iteration': 25000, 'input': 'sampler', 'input_evaluation': ['is', 'wis'], 'postprocess_inputs': False, 'shuffle_buffer_size': 0, 'output': None, 'output_compress_columns': ['obs', 'new_obs'], 'output_max_file_size': 67108864, 'multiagent': {'policies': {}, 'policy_mapping_fn': None, 'policies_to_train': None}, 'twin_q': False, 'policy_delay': 1, 'smooth_target_policy': False, 'target_noise': 0.2, 'target_noise_clip': 0.5, 'use_state_preprocessor': False, 'actor_hiddens': [400, 300], 'actor_hidden_activation': 'relu', 'critic_hiddens': [400, 300], 'critic_hidden_activation': 'relu', 'n_step': 3, 'exploration_should_anneal': False, 'schedule_max_timesteps': 100000, 'exploration_fraction': 0.1, 'exploration_final_scale': 0.02, 'exploration_noise_type': 'ou', 'exploration_ou_noise_scale': 1.0, 'exploration_ou_theta': 0.15, 'exploration_ou_sigma': 0.2, 'exploration_gaussian_sigma': 0.1, 'parameter_noise': False, 'pure_exploration_steps': 1000, 'buffer_size': 2000000, 'prioritized_replay': True, 'prioritized_replay_alpha': 0.6, 'prioritized_replay_beta': 0.4, 'beta_annealing_fraction': 0.2, 'final_prioritized_replay_beta': 0.4, 'prioritized_replay_eps': 1e-06, 'critic_lr': 0.001, 'actor_lr': 0.001, 'target_network_update_freq': 50000, 'tau': 1.0, 'use_huber': True, 'huber_threshold': 1.0, 'l2_reg': 1e-06, 'grad_norm_clipping': None, 'learning_starts': 50000, 'per_worker_exploration': True, 'worker_side_prioritization': True}",244.34269738197327,2071600,8,11
39.41643393486862,-16.579116285999735,17.15636227678882,150.0,628,{},{},"{'mean_env_wait_ms': 1.538125488231679, 'mean_processing_ms': 1.1631781158199737, 'mean_inference_ms': 2.1577066844593733}",{},0,"{'min_exploration': 0.0, 'max_exploration': 0.4, 'num_target_updates': 41, 'num_steps_trained': 2087424, 'num_steps_sampled': 2327200, 'sample_throughput': 11076.848, 'train_throughput': 18904.488, 'num_weight_syncs': 5816, 'num_samples_dropped': 55, 'learner_queue': {'size_count': 6130, 'size_mean': 0.2, 'size_std': 0.447213595499958, 'size_quantiles': [0.0, 0.0, 0.0, 1.0, 2.0]}, 'replay_shard_0': {'add_batch_time_ms': 15.519, 'replay_time_ms': 36.109, 'update_priorities_time_ms': 109.049, 'policy_default_policy': {'added_count': 570600, 'sampled_count': 534528, 'est_size_bytes': 170500000, 'num_entries': 500000}}, 'learner': {'default_policy': {'mean_q': 6.536410808563232, 'max_q': 34.71221923828125, 'min_q': -3.3349640369415283}}}",255600,False,2327200,5648,9,551d10f630db4ab0a22be0a16a50447a,2019-07-24_03-08-07,1563930487,30.518373489379883,274.86107087135315,32336,navel-notebook-1,10.16.128.63,"{'monitor': False, 'log_level': 'INFO', 'callbacks': {'on_episode_start': None, 'on_episode_step': None, 'on_episode_end': None, 'on_sample_end': None, 'on_train_result': None, 'on_postprocess_traj': None}, 'ignore_worker_failures': False, 'use_eager': False, 'model': {'conv_filters': None, 'conv_activation': 'relu', 'fcnet_activation': 'tanh', 'fcnet_hiddens': [256, 256], 'free_log_std': False, 'squash_to_range': False, 'use_lstm': False, 'max_seq_len': 20, 'lstm_cell_size': 256, 'lstm_use_prev_action_reward': False, 'framestack': True, 'dim': 84, 'grayscale': False, 'zero_mean': True, 'custom_preprocessor': None, 'custom_model': None, 'custom_options': {}}, 'optimizer': {'max_weight_sync_delay': 400, 'num_replay_buffer_shards': 4, 'debug': False}, 'gamma': 0.99, 'horizon': None, 'soft_horizon': False, 'env_config': {'env_type': 'openai'}, 'env': 'RoboschoolReacher-v1', 'clip_rewards': False, 'clip_actions': True, 'preprocessor_pref': 'deepmind', 'lr': 0.0001, 'evaluation_interval': 5, 'evaluation_num_episodes': 10, 'evaluation_config': {'exploration_fraction': 0, 'exploration_final_eps': 0}, 'num_workers': 11, 'num_gpus': 1, 'num_cpus_per_worker': 1, 'num_gpus_per_worker': 0, 'custom_resources_per_worker': {}, 'num_cpus_for_driver': 1, 'num_envs_per_worker': 4, 'sample_batch_size': 50, 'train_batch_size': 512, 'batch_mode': 'truncate_episodes', 'sample_async': False, 'observation_filter': 'NoFilter', 'synchronize_filters': True, 'tf_session_args': {'intra_op_parallelism_threads': 2, 'inter_op_parallelism_threads': 2, 'gpu_options': {'allow_growth': True}, 'log_device_placement': False, 'device_count': {'CPU': 1}, 'allow_soft_placement': True}, 'local_tf_session_args': {'intra_op_parallelism_threads': 8, 'inter_op_parallelism_threads': 8}, 'compress_observations': False, 'collect_metrics_timeout': 180, 'metrics_smoothing_episodes': 100, 'remote_worker_envs': False, 'remote_env_batch_wait_ms': 0, 'min_iter_time_s': 30, 'timesteps_per_iteration': 25000, 'input': 'sampler', 'input_evaluation': ['is', 'wis'], 'postprocess_inputs': False, 'shuffle_buffer_size': 0, 'output': None, 'output_compress_columns': ['obs', 'new_obs'], 'output_max_file_size': 67108864, 'multiagent': {'policies': {}, 'policy_mapping_fn': None, 'policies_to_train': None}, 'twin_q': False, 'policy_delay': 1, 'smooth_target_policy': False, 'target_noise': 0.2, 'target_noise_clip': 0.5, 'use_state_preprocessor': False, 'actor_hiddens': [400, 300], 'actor_hidden_activation': 'relu', 'critic_hiddens': [400, 300], 'critic_hidden_activation': 'relu', 'n_step': 3, 'exploration_should_anneal': False, 'schedule_max_timesteps': 100000, 'exploration_fraction': 0.1, 'exploration_final_scale': 0.02, 'exploration_noise_type': 'ou', 'exploration_ou_noise_scale': 1.0, 'exploration_ou_theta': 0.15, 'exploration_ou_sigma': 0.2, 'exploration_gaussian_sigma': 0.1, 'parameter_noise': False, 'pure_exploration_steps': 1000, 'buffer_size': 2000000, 'prioritized_replay': True, 'prioritized_replay_alpha': 0.6, 'prioritized_replay_beta': 0.4, 'beta_annealing_fraction': 0.2, 'final_prioritized_replay_beta': 0.4, 'prioritized_replay_eps': 1e-06, 'critic_lr': 0.001, 'actor_lr': 0.001, 'target_network_update_freq': 50000, 'tau': 1.0, 'use_huber': True, 'huber_threshold': 1.0, 'l2_reg': 1e-06, 'grad_norm_clipping': None, 'learning_starts': 50000, 'per_worker_exploration': True, 'worker_side_prioritization': True}",274.86107087135315,2327200,9,11
39.078132373044575,-9.652673871062484,17.996174451876072,150.0,632,{},{},"{'mean_env_wait_ms': 1.5386896422260685, 'mean_processing_ms': 1.1619604698053398, 'mean_inference_ms': 2.161346486369108}",{},0,"{'min_exploration': 0.0, 'max_exploration': 0.4, 'num_target_updates': 46, 'num_steps_trained': 2320384, 'num_steps_sampled': 2585600, 'sample_throughput': 0.0, 'train_throughput': 0.0, 'num_weight_syncs': 6461, 'num_samples_dropped': 55, 'learner_queue': {'size_count': 6585, 'size_mean': 0.18, 'size_std': 0.38418745424597095, 'size_quantiles': [0.0, 0.0, 0.0, 1.0, 1.0]}, 'replay_shard_0': {'add_batch_time_ms': 10.042, 'replay_time_ms': 40.299, 'update_priorities_time_ms': 93.492, 'policy_default_policy': {'added_count': 634000, 'sampled_count': 592384, 'est_size_bytes': 170500000, 'num_entries': 500000}}, 'learner': {'default_policy': {'mean_q': 5.616798400878906, 'max_q': 29.188758850097656, 'min_q': -1.7562838792800903}}}",258400,False,2585600,6280,10,551d10f630db4ab0a22be0a16a50447a,2019-07-24_03-08-37,1563930517,30.54195261001587,305.403023481369,32336,navel-notebook-1,10.16.128.63,"{'monitor': False, 'log_level': 'INFO', 'callbacks': {'on_episode_start': None, 'on_episode_step': None, 'on_episode_end': None, 'on_sample_end': None, 'on_train_result': None, 'on_postprocess_traj': None}, 'ignore_worker_failures': False, 'use_eager': False, 'model': {'conv_filters': None, 'conv_activation': 'relu', 'fcnet_activation': 'tanh', 'fcnet_hiddens': [256, 256], 'free_log_std': False, 'squash_to_range': False, 'use_lstm': False, 'max_seq_len': 20, 'lstm_cell_size': 256, 'lstm_use_prev_action_reward': False, 'framestack': True, 'dim': 84, 'grayscale': False, 'zero_mean': True, 'custom_preprocessor': None, 'custom_model': None, 'custom_options': {}}, 'optimizer': {'max_weight_sync_delay': 400, 'num_replay_buffer_shards': 4, 'debug': False}, 'gamma': 0.99, 'horizon': None, 'soft_horizon': False, 'env_config': {'env_type': 'openai'}, 'env': 'RoboschoolReacher-v1', 'clip_rewards': False, 'clip_actions': True, 'preprocessor_pref': 'deepmind', 'lr': 0.0001, 'evaluation_interval': 5, 'evaluation_num_episodes': 10, 'evaluation_config': {'exploration_fraction': 0, 'exploration_final_eps': 0}, 'num_workers': 11, 'num_gpus': 1, 'num_cpus_per_worker': 1, 'num_gpus_per_worker': 0, 'custom_resources_per_worker': {}, 'num_cpus_for_driver': 1, 'num_envs_per_worker': 4, 'sample_batch_size': 50, 'train_batch_size': 512, 'batch_mode': 'truncate_episodes', 'sample_async': False, 'observation_filter': 'NoFilter', 'synchronize_filters': True, 'tf_session_args': {'intra_op_parallelism_threads': 2, 'inter_op_parallelism_threads': 2, 'gpu_options': {'allow_growth': True}, 'log_device_placement': False, 'device_count': {'CPU': 1}, 'allow_soft_placement': True}, 'local_tf_session_args': {'intra_op_parallelism_threads': 8, 'inter_op_parallelism_threads': 8}, 'compress_observations': False, 'collect_metrics_timeout': 180, 'metrics_smoothing_episodes': 100, 'remote_worker_envs': False, 'remote_env_batch_wait_ms': 0, 'min_iter_time_s': 30, 'timesteps_per_iteration': 25000, 'input': 'sampler', 'input_evaluation': ['is', 'wis'], 'postprocess_inputs': False, 'shuffle_buffer_size': 0, 'output': None, 'output_compress_columns': ['obs', 'new_obs'], 'output_max_file_size': 67108864, 'multiagent': {'policies': {}, 'policy_mapping_fn': None, 'policies_to_train': None}, 'twin_q': False, 'policy_delay': 1, 'smooth_target_policy': False, 'target_noise': 0.2, 'target_noise_clip': 0.5, 'use_state_preprocessor': False, 'actor_hiddens': [400, 300], 'actor_hidden_activation': 'relu', 'critic_hiddens': [400, 300], 'critic_hidden_activation': 'relu', 'n_step': 3, 'exploration_should_anneal': False, 'schedule_max_timesteps': 100000, 'exploration_fraction': 0.1, 'exploration_final_scale': 0.02, 'exploration_noise_type': 'ou', 'exploration_ou_noise_scale': 1.0, 'exploration_ou_theta': 0.15, 'exploration_ou_sigma': 0.2, 'exploration_gaussian_sigma': 0.1, 'parameter_noise': False, 'pure_exploration_steps': 1000, 'buffer_size': 2000000, 'prioritized_replay': True, 'prioritized_replay_alpha': 0.6, 'prioritized_replay_beta': 0.4, 'beta_annealing_fraction': 0.2, 'final_prioritized_replay_beta': 0.4, 'prioritized_replay_eps': 1e-06, 'critic_lr': 0.001, 'actor_lr': 0.001, 'target_network_update_freq': 50000, 'tau': 1.0, 'use_huber': True, 'huber_threshold': 1.0, 'l2_reg': 1e-06, 'grad_norm_clipping': None, 'learning_starts': 50000, 'per_worker_exploration': True, 'worker_side_prioritization': True}",305.403023481369,2585600,10,11
39.19309821293682,-15.076650657019158,17.769916727738963,150.0,624,{},{},"{'mean_env_wait_ms': 1.5395130163865183, 'mean_processing_ms': 1.1618481494340982, 'mean_inference_ms': 2.162872936908632}",{},0,"{'min_exploration': 0.0, 'max_exploration': 0.4, 'num_target_updates': 50, 'num_steps_trained': 2555904, 'num_steps_sampled': 2842200, 'sample_throughput': 0.0, 'train_throughput': 0.0, 'num_weight_syncs': 7103, 'num_samples_dropped': 55, 'learner_queue': {'size_count': 7048, 'size_mean': 0.36, 'size_std': 0.5919459434779497, 'size_quantiles': [0.0, 0.0, 0.0, 1.0, 2.0]}, 'replay_shard_0': {'add_batch_time_ms': 15.319, 'replay_time_ms': 37.554, 'update_priorities_time_ms': 94.492, 'policy_default_policy': {'added_count': 699400, 'sampled_count': 650752, 'est_size_bytes': 170500000, 'num_entries': 500000}}, 'learner': {'default_policy': {'mean_q': 5.7682647705078125, 'max_q': 35.22154998779297, 'min_q': -0.732412576675415}}}",256600,False,2842200,6904,11,551d10f630db4ab0a22be0a16a50447a,2019-07-24_03-09-09,1563930549,30.456491947174072,335.8595154285431,32336,navel-notebook-1,10.16.128.63,"{'monitor': False, 'log_level': 'INFO', 'callbacks': {'on_episode_start': None, 'on_episode_step': None, 'on_episode_end': None, 'on_sample_end': None, 'on_train_result': None, 'on_postprocess_traj': None}, 'ignore_worker_failures': False, 'use_eager': False, 'model': {'conv_filters': None, 'conv_activation': 'relu', 'fcnet_activation': 'tanh', 'fcnet_hiddens': [256, 256], 'free_log_std': False, 'squash_to_range': False, 'use_lstm': False, 'max_seq_len': 20, 'lstm_cell_size': 256, 'lstm_use_prev_action_reward': False, 'framestack': True, 'dim': 84, 'grayscale': False, 'zero_mean': True, 'custom_preprocessor': None, 'custom_model': None, 'custom_options': {}}, 'optimizer': {'max_weight_sync_delay': 400, 'num_replay_buffer_shards': 4, 'debug': False}, 'gamma': 0.99, 'horizon': None, 'soft_horizon': False, 'env_config': {'env_type': 'openai'}, 'env': 'RoboschoolReacher-v1', 'clip_rewards': False, 'clip_actions': True, 'preprocessor_pref': 'deepmind', 'lr': 0.0001, 'evaluation_interval': 5, 'evaluation_num_episodes': 10, 'evaluation_config': {'exploration_fraction': 0, 'exploration_final_eps': 0}, 'num_workers': 11, 'num_gpus': 1, 'num_cpus_per_worker': 1, 'num_gpus_per_worker': 0, 'custom_resources_per_worker': {}, 'num_cpus_for_driver': 1, 'num_envs_per_worker': 4, 'sample_batch_size': 50, 'train_batch_size': 512, 'batch_mode': 'truncate_episodes', 'sample_async': False, 'observation_filter': 'NoFilter', 'synchronize_filters': True, 'tf_session_args': {'intra_op_parallelism_threads': 2, 'inter_op_parallelism_threads': 2, 'gpu_options': {'allow_growth': True}, 'log_device_placement': False, 'device_count': {'CPU': 1}, 'allow_soft_placement': True}, 'local_tf_session_args': {'intra_op_parallelism_threads': 8, 'inter_op_parallelism_threads': 8}, 'compress_observations': False, 'collect_metrics_timeout': 180, 'metrics_smoothing_episodes': 100, 'remote_worker_envs': False, 'remote_env_batch_wait_ms': 0, 'min_iter_time_s': 30, 'timesteps_per_iteration': 25000, 'input': 'sampler', 'input_evaluation': ['is', 'wis'], 'postprocess_inputs': False, 'shuffle_buffer_size': 0, 'output': None, 'output_compress_columns': ['obs', 'new_obs'], 'output_max_file_size': 67108864, 'multiagent': {'policies': {}, 'policy_mapping_fn': None, 'policies_to_train': None}, 'twin_q': False, 'policy_delay': 1, 'smooth_target_policy': False, 'target_noise': 0.2, 'target_noise_clip': 0.5, 'use_state_preprocessor': False, 'actor_hiddens': [400, 300], 'actor_hidden_activation': 'relu', 'critic_hiddens': [400, 300], 'critic_hidden_activation': 'relu', 'n_step': 3, 'exploration_should_anneal': False, 'schedule_max_timesteps': 100000, 'exploration_fraction': 0.1, 'exploration_final_scale': 0.02, 'exploration_noise_type': 'ou', 'exploration_ou_noise_scale': 1.0, 'exploration_ou_theta': 0.15, 'exploration_ou_sigma': 0.2, 'exploration_gaussian_sigma': 0.1, 'parameter_noise': False, 'pure_exploration_steps': 1000, 'buffer_size': 2000000, 'prioritized_replay': True, 'prioritized_replay_alpha': 0.6, 'prioritized_replay_beta': 0.4, 'beta_annealing_fraction': 0.2, 'final_prioritized_replay_beta': 0.4, 'prioritized_replay_eps': 1e-06, 'critic_lr': 0.001, 'actor_lr': 0.001, 'target_network_update_freq': 50000, 'tau': 1.0, 'use_huber': True, 'huber_threshold': 1.0, 'l2_reg': 1e-06, 'grad_norm_clipping': None, 'learning_starts': 50000, 'per_worker_exploration': True, 'worker_side_prioritization': True}",335.8595154285431,2842200,11,11
39.25734125290658,-23.11242261578964,17.598706332561115,150.0,628,{},{},"{'mean_env_wait_ms': 1.5402317835746744, 'mean_processing_ms': 1.1649317092866818, 'mean_inference_ms': 2.164946646960287}",{},0,"{'min_exploration': 0.0, 'max_exploration': 0.4, 'num_target_updates': 55, 'num_steps_trained': 2784768, 'num_steps_sampled': 3102800, 'sample_throughput': 23071.36, 'train_throughput': 0.0, 'num_weight_syncs': 7753, 'num_samples_dropped': 55, 'learner_queue': {'size_count': 7492, 'size_mean': 0.18, 'size_std': 0.38418745424597095, 'size_quantiles': [0.0, 0.0, 0.0, 1.0, 1.0]}, 'replay_shard_0': {'add_batch_time_ms': 7.777, 'replay_time_ms': 34.917, 'update_priorities_time_ms': 102.908, 'policy_default_policy': {'added_count': 762200, 'sampled_count': 709120, 'est_size_bytes': 170500000, 'num_entries': 500000}}, 'learner': {'default_policy': {'mean_q': 6.477190017700195, 'max_q': 34.370872497558594, 'min_q': -0.4278132915496826}}}",260600,False,3102800,7532,12,551d10f630db4ab0a22be0a16a50447a,2019-07-24_03-09-39,1563930579,30.556642293930054,366.41615772247314,32336,navel-notebook-1,10.16.128.63,"{'monitor': False, 'log_level': 'INFO', 'callbacks': {'on_episode_start': None, 'on_episode_step': None, 'on_episode_end': None, 'on_sample_end': None, 'on_train_result': None, 'on_postprocess_traj': None}, 'ignore_worker_failures': False, 'use_eager': False, 'model': {'conv_filters': None, 'conv_activation': 'relu', 'fcnet_activation': 'tanh', 'fcnet_hiddens': [256, 256], 'free_log_std': False, 'squash_to_range': False, 'use_lstm': False, 'max_seq_len': 20, 'lstm_cell_size': 256, 'lstm_use_prev_action_reward': False, 'framestack': True, 'dim': 84, 'grayscale': False, 'zero_mean': True, 'custom_preprocessor': None, 'custom_model': None, 'custom_options': {}}, 'optimizer': {'max_weight_sync_delay': 400, 'num_replay_buffer_shards': 4, 'debug': False}, 'gamma': 0.99, 'horizon': None, 'soft_horizon': False, 'env_config': {'env_type': 'openai'}, 'env': 'RoboschoolReacher-v1', 'clip_rewards': False, 'clip_actions': True, 'preprocessor_pref': 'deepmind', 'lr': 0.0001, 'evaluation_interval': 5, 'evaluation_num_episodes': 10, 'evaluation_config': {'exploration_fraction': 0, 'exploration_final_eps': 0}, 'num_workers': 11, 'num_gpus': 1, 'num_cpus_per_worker': 1, 'num_gpus_per_worker': 0, 'custom_resources_per_worker': {}, 'num_cpus_for_driver': 1, 'num_envs_per_worker': 4, 'sample_batch_size': 50, 'train_batch_size': 512, 'batch_mode': 'truncate_episodes', 'sample_async': False, 'observation_filter': 'NoFilter', 'synchronize_filters': True, 'tf_session_args': {'intra_op_parallelism_threads': 2, 'inter_op_parallelism_threads': 2, 'gpu_options': {'allow_growth': True}, 'log_device_placement': False, 'device_count': {'CPU': 1}, 'allow_soft_placement': True}, 'local_tf_session_args': {'intra_op_parallelism_threads': 8, 'inter_op_parallelism_threads': 8}, 'compress_observations': False, 'collect_metrics_timeout': 180, 'metrics_smoothing_episodes': 100, 'remote_worker_envs': False, 'remote_env_batch_wait_ms': 0, 'min_iter_time_s': 30, 'timesteps_per_iteration': 25000, 'input': 'sampler', 'input_evaluation': ['is', 'wis'], 'postprocess_inputs': False, 'shuffle_buffer_size': 0, 'output': None, 'output_compress_columns': ['obs', 'new_obs'], 'output_max_file_size': 67108864, 'multiagent': {'policies': {}, 'policy_mapping_fn': None, 'policies_to_train': None}, 'twin_q': False, 'policy_delay': 1, 'smooth_target_policy': False, 'target_noise': 0.2, 'target_noise_clip': 0.5, 'use_state_preprocessor': False, 'actor_hiddens': [400, 300], 'actor_hidden_activation': 'relu', 'critic_hiddens': [400, 300], 'critic_hidden_activation': 'relu', 'n_step': 3, 'exploration_should_anneal': False, 'schedule_max_timesteps': 100000, 'exploration_fraction': 0.1, 'exploration_final_scale': 0.02, 'exploration_noise_type': 'ou', 'exploration_ou_noise_scale': 1.0, 'exploration_ou_theta': 0.15, 'exploration_ou_sigma': 0.2, 'exploration_gaussian_sigma': 0.1, 'parameter_noise': False, 'pure_exploration_steps': 1000, 'buffer_size': 2000000, 'prioritized_replay': True, 'prioritized_replay_alpha': 0.6, 'prioritized_replay_beta': 0.4, 'beta_annealing_fraction': 0.2, 'final_prioritized_replay_beta': 0.4, 'prioritized_replay_eps': 1e-06, 'critic_lr': 0.001, 'actor_lr': 0.001, 'target_network_update_freq': 50000, 'tau': 1.0, 'use_huber': True, 'huber_threshold': 1.0, 'l2_reg': 1e-06, 'grad_norm_clipping': None, 'learning_starts': 50000, 'per_worker_exploration': True, 'worker_side_prioritization': True}",366.41615772247314,3102800,12,11
39.14002836563628,-19.26268923825778,17.482322325435447,150.0,616,{},{},"{'mean_env_wait_ms': 1.5396387493164276, 'mean_processing_ms': 1.1656811792185857, 'mean_inference_ms': 2.1660404728207854}",{},0,"{'min_exploration': 0.0, 'max_exploration': 0.4, 'num_target_updates': 60, 'num_steps_trained': 3022336, 'num_steps_sampled': 3359800, 'sample_throughput': 6202.344, 'train_throughput': 15878.0, 'num_weight_syncs': 8396, 'num_samples_dropped': 55, 'learner_queue': {'size_count': 7956, 'size_mean': 0.7, 'size_std': 1.3304134695650067, 'size_quantiles': [0.0, 0.0, 0.0, 3.0, 5.0]}, 'replay_shard_0': {'add_batch_time_ms': 13.304, 'replay_time_ms': 35.753, 'update_priorities_time_ms': 101.356, 'policy_default_policy': {'added_count': 823200, 'sampled_count': 766464, 'est_size_bytes': 170500000, 'num_entries': 500000}}, 'learner': {'default_policy': {'mean_q': 5.430259704589844, 'max_q': 33.385398864746094, 'min_q': -0.8891973495483398}}}",257000,False,3359800,8148,13,551d10f630db4ab0a22be0a16a50447a,2019-07-24_03-10-10,1563930610,30.55694055557251,396.97309827804565,32336,navel-notebook-1,10.16.128.63,"{'monitor': False, 'log_level': 'INFO', 'callbacks': {'on_episode_start': None, 'on_episode_step': None, 'on_episode_end': None, 'on_sample_end': None, 'on_train_result': None, 'on_postprocess_traj': None}, 'ignore_worker_failures': False, 'use_eager': False, 'model': {'conv_filters': None, 'conv_activation': 'relu', 'fcnet_activation': 'tanh', 'fcnet_hiddens': [256, 256], 'free_log_std': False, 'squash_to_range': False, 'use_lstm': False, 'max_seq_len': 20, 'lstm_cell_size': 256, 'lstm_use_prev_action_reward': False, 'framestack': True, 'dim': 84, 'grayscale': False, 'zero_mean': True, 'custom_preprocessor': None, 'custom_model': None, 'custom_options': {}}, 'optimizer': {'max_weight_sync_delay': 400, 'num_replay_buffer_shards': 4, 'debug': False}, 'gamma': 0.99, 'horizon': None, 'soft_horizon': False, 'env_config': {'env_type': 'openai'}, 'env': 'RoboschoolReacher-v1', 'clip_rewards': False, 'clip_actions': True, 'preprocessor_pref': 'deepmind', 'lr': 0.0001, 'evaluation_interval': 5, 'evaluation_num_episodes': 10, 'evaluation_config': {'exploration_fraction': 0, 'exploration_final_eps': 0}, 'num_workers': 11, 'num_gpus': 1, 'num_cpus_per_worker': 1, 'num_gpus_per_worker': 0, 'custom_resources_per_worker': {}, 'num_cpus_for_driver': 1, 'num_envs_per_worker': 4, 'sample_batch_size': 50, 'train_batch_size': 512, 'batch_mode': 'truncate_episodes', 'sample_async': False, 'observation_filter': 'NoFilter', 'synchronize_filters': True, 'tf_session_args': {'intra_op_parallelism_threads': 2, 'inter_op_parallelism_threads': 2, 'gpu_options': {'allow_growth': True}, 'log_device_placement': False, 'device_count': {'CPU': 1}, 'allow_soft_placement': True}, 'local_tf_session_args': {'intra_op_parallelism_threads': 8, 'inter_op_parallelism_threads': 8}, 'compress_observations': False, 'collect_metrics_timeout': 180, 'metrics_smoothing_episodes': 100, 'remote_worker_envs': False, 'remote_env_batch_wait_ms': 0, 'min_iter_time_s': 30, 'timesteps_per_iteration': 25000, 'input': 'sampler', 'input_evaluation': ['is', 'wis'], 'postprocess_inputs': False, 'shuffle_buffer_size': 0, 'output': None, 'output_compress_columns': ['obs', 'new_obs'], 'output_max_file_size': 67108864, 'multiagent': {'policies': {}, 'policy_mapping_fn': None, 'policies_to_train': None}, 'twin_q': False, 'policy_delay': 1, 'smooth_target_policy': False, 'target_noise': 0.2, 'target_noise_clip': 0.5, 'use_state_preprocessor': False, 'actor_hiddens': [400, 300], 'actor_hidden_activation': 'relu', 'critic_hiddens': [400, 300], 'critic_hidden_activation': 'relu', 'n_step': 3, 'exploration_should_anneal': False, 'schedule_max_timesteps': 100000, 'exploration_fraction': 0.1, 'exploration_final_scale': 0.02, 'exploration_noise_type': 'ou', 'exploration_ou_noise_scale': 1.0, 'exploration_ou_theta': 0.15, 'exploration_ou_sigma': 0.2, 'exploration_gaussian_sigma': 0.1, 'parameter_noise': False, 'pure_exploration_steps': 1000, 'buffer_size': 2000000, 'prioritized_replay': True, 'prioritized_replay_alpha': 0.6, 'prioritized_replay_beta': 0.4, 'beta_annealing_fraction': 0.2, 'final_prioritized_replay_beta': 0.4, 'prioritized_replay_eps': 1e-06, 'critic_lr': 0.001, 'actor_lr': 0.001, 'target_network_update_freq': 50000, 'tau': 1.0, 'use_huber': True, 'huber_threshold': 1.0, 'l2_reg': 1e-06, 'grad_norm_clipping': None, 'learning_starts': 50000, 'per_worker_exploration': True, 'worker_side_prioritization': True}",396.97309827804565,3359800,13,11
38.96842698058699,-10.222675544071228,17.813608293230942,150.0,632,{},{},"{'mean_env_wait_ms': 1.5405554426534822, 'mean_processing_ms': 1.1664182221610597, 'mean_inference_ms': 2.163909064985077}",{},0,"{'min_exploration': 0.0, 'max_exploration': 0.4, 'num_target_updates': 64, 'num_steps_trained': 3256320, 'num_steps_sampled': 3618400, 'sample_throughput': 6185.742, 'train_throughput': 0.0, 'num_weight_syncs': 9045, 'num_samples_dropped': 55, 'learner_queue': {'size_count': 8414, 'size_mean': 0.1, 'size_std': 0.3, 'size_quantiles': [0.0, 0.0, 0.0, 0.10000000000000142, 1.0]}, 'replay_shard_0': {'add_batch_time_ms': 14.513, 'replay_time_ms': 39.382, 'update_priorities_time_ms': 90.702, 'policy_default_policy': {'added_count': 883400, 'sampled_count': 826368, 'est_size_bytes': 170500000, 'num_entries': 500000}}, 'learner': {'default_policy': {'mean_q': 5.896936893463135, 'max_q': 35.34682083129883, 'min_q': -0.47737282514572144}}}",258600,False,3618400,8780,14,551d10f630db4ab0a22be0a16a50447a,2019-07-24_03-10-40,1563930640,30.468514680862427,427.4416129589081,32336,navel-notebook-1,10.16.128.63,"{'monitor': False, 'log_level': 'INFO', 'callbacks': {'on_episode_start': None, 'on_episode_step': None, 'on_episode_end': None, 'on_sample_end': None, 'on_train_result': None, 'on_postprocess_traj': None}, 'ignore_worker_failures': False, 'use_eager': False, 'model': {'conv_filters': None, 'conv_activation': 'relu', 'fcnet_activation': 'tanh', 'fcnet_hiddens': [256, 256], 'free_log_std': False, 'squash_to_range': False, 'use_lstm': False, 'max_seq_len': 20, 'lstm_cell_size': 256, 'lstm_use_prev_action_reward': False, 'framestack': True, 'dim': 84, 'grayscale': False, 'zero_mean': True, 'custom_preprocessor': None, 'custom_model': None, 'custom_options': {}}, 'optimizer': {'max_weight_sync_delay': 400, 'num_replay_buffer_shards': 4, 'debug': False}, 'gamma': 0.99, 'horizon': None, 'soft_horizon': False, 'env_config': {'env_type': 'openai'}, 'env': 'RoboschoolReacher-v1', 'clip_rewards': False, 'clip_actions': True, 'preprocessor_pref': 'deepmind', 'lr': 0.0001, 'evaluation_interval': 5, 'evaluation_num_episodes': 10, 'evaluation_config': {'exploration_fraction': 0, 'exploration_final_eps': 0}, 'num_workers': 11, 'num_gpus': 1, 'num_cpus_per_worker': 1, 'num_gpus_per_worker': 0, 'custom_resources_per_worker': {}, 'num_cpus_for_driver': 1, 'num_envs_per_worker': 4, 'sample_batch_size': 50, 'train_batch_size': 512, 'batch_mode': 'truncate_episodes', 'sample_async': False, 'observation_filter': 'NoFilter', 'synchronize_filters': True, 'tf_session_args': {'intra_op_parallelism_threads': 2, 'inter_op_parallelism_threads': 2, 'gpu_options': {'allow_growth': True}, 'log_device_placement': False, 'device_count': {'CPU': 1}, 'allow_soft_placement': True}, 'local_tf_session_args': {'intra_op_parallelism_threads': 8, 'inter_op_parallelism_threads': 8}, 'compress_observations': False, 'collect_metrics_timeout': 180, 'metrics_smoothing_episodes': 100, 'remote_worker_envs': False, 'remote_env_batch_wait_ms': 0, 'min_iter_time_s': 30, 'timesteps_per_iteration': 25000, 'input': 'sampler', 'input_evaluation': ['is', 'wis'], 'postprocess_inputs': False, 'shuffle_buffer_size': 0, 'output': None, 'output_compress_columns': ['obs', 'new_obs'], 'output_max_file_size': 67108864, 'multiagent': {'policies': {}, 'policy_mapping_fn': None, 'policies_to_train': None}, 'twin_q': False, 'policy_delay': 1, 'smooth_target_policy': False, 'target_noise': 0.2, 'target_noise_clip': 0.5, 'use_state_preprocessor': False, 'actor_hiddens': [400, 300], 'actor_hidden_activation': 'relu', 'critic_hiddens': [400, 300], 'critic_hidden_activation': 'relu', 'n_step': 3, 'exploration_should_anneal': False, 'schedule_max_timesteps': 100000, 'exploration_fraction': 0.1, 'exploration_final_scale': 0.02, 'exploration_noise_type': 'ou', 'exploration_ou_noise_scale': 1.0, 'exploration_ou_theta': 0.15, 'exploration_ou_sigma': 0.2, 'exploration_gaussian_sigma': 0.1, 'parameter_noise': False, 'pure_exploration_steps': 1000, 'buffer_size': 2000000, 'prioritized_replay': True, 'prioritized_replay_alpha': 0.6, 'prioritized_replay_beta': 0.4, 'beta_annealing_fraction': 0.2, 'final_prioritized_replay_beta': 0.4, 'prioritized_replay_eps': 1e-06, 'critic_lr': 0.001, 'actor_lr': 0.001, 'target_network_update_freq': 50000, 'tau': 1.0, 'use_huber': True, 'huber_threshold': 1.0, 'l2_reg': 1e-06, 'grad_norm_clipping': None, 'learning_starts': 50000, 'per_worker_exploration': True, 'worker_side_prioritization': True}",427.4416129589081,3618400,14,11
38.76926423473594,-6.085725507887218,18.305545610315054,150.0,624,{},{},"{'mean_env_wait_ms': 1.5423755167707667, 'mean_processing_ms': 1.165508688388191, 'mean_inference_ms': 2.1661242810201764}",{},0,"{'min_exploration': 0.0, 'max_exploration': 0.4, 'num_target_updates': 69, 'num_steps_trained': 3495936, 'num_steps_sampled': 3874600, 'sample_throughput': 5197.403, 'train_throughput': 13305.351, 'num_weight_syncs': 9683, 'num_samples_dropped': 55, 'learner_queue': {'size_count': 8881, 'size_mean': 0.3, 'size_std': 0.5744562646538028, 'size_quantiles': [0.0, 0.0, 0.0, 1.0, 2.0]}, 'replay_shard_0': {'add_batch_time_ms': 6.32, 'replay_time_ms': 37.37, 'update_priorities_time_ms': 91.007, 'policy_default_policy': {'added_count': 948200, 'sampled_count': 886784, 'est_size_bytes': 170500000, 'num_entries': 500000}}, 'learner': {'default_policy': {'mean_q': 5.5167059898376465, 'max_q': 34.13456344604492, 'min_q': -0.5762825608253479}}}",256200,False,3874600,9404,15,551d10f630db4ab0a22be0a16a50447a,2019-07-24_03-11-11,1563930671,30.551905155181885,457.99351811408997,32336,navel-notebook-1,10.16.128.63,"{'monitor': False, 'log_level': 'INFO', 'callbacks': {'on_episode_start': None, 'on_episode_step': None, 'on_episode_end': None, 'on_sample_end': None, 'on_train_result': None, 'on_postprocess_traj': None}, 'ignore_worker_failures': False, 'use_eager': False, 'model': {'conv_filters': None, 'conv_activation': 'relu', 'fcnet_activation': 'tanh', 'fcnet_hiddens': [256, 256], 'free_log_std': False, 'squash_to_range': False, 'use_lstm': False, 'max_seq_len': 20, 'lstm_cell_size': 256, 'lstm_use_prev_action_reward': False, 'framestack': True, 'dim': 84, 'grayscale': False, 'zero_mean': True, 'custom_preprocessor': None, 'custom_model': None, 'custom_options': {}}, 'optimizer': {'max_weight_sync_delay': 400, 'num_replay_buffer_shards': 4, 'debug': False}, 'gamma': 0.99, 'horizon': None, 'soft_horizon': False, 'env_config': {'env_type': 'openai'}, 'env': 'RoboschoolReacher-v1', 'clip_rewards': False, 'clip_actions': True, 'preprocessor_pref': 'deepmind', 'lr': 0.0001, 'evaluation_interval': 5, 'evaluation_num_episodes': 10, 'evaluation_config': {'exploration_fraction': 0, 'exploration_final_eps': 0}, 'num_workers': 11, 'num_gpus': 1, 'num_cpus_per_worker': 1, 'num_gpus_per_worker': 0, 'custom_resources_per_worker': {}, 'num_cpus_for_driver': 1, 'num_envs_per_worker': 4, 'sample_batch_size': 50, 'train_batch_size': 512, 'batch_mode': 'truncate_episodes', 'sample_async': False, 'observation_filter': 'NoFilter', 'synchronize_filters': True, 'tf_session_args': {'intra_op_parallelism_threads': 2, 'inter_op_parallelism_threads': 2, 'gpu_options': {'allow_growth': True}, 'log_device_placement': False, 'device_count': {'CPU': 1}, 'allow_soft_placement': True}, 'local_tf_session_args': {'intra_op_parallelism_threads': 8, 'inter_op_parallelism_threads': 8}, 'compress_observations': False, 'collect_metrics_timeout': 180, 'metrics_smoothing_episodes': 100, 'remote_worker_envs': False, 'remote_env_batch_wait_ms': 0, 'min_iter_time_s': 30, 'timesteps_per_iteration': 25000, 'input': 'sampler', 'input_evaluation': ['is', 'wis'], 'postprocess_inputs': False, 'shuffle_buffer_size': 0, 'output': None, 'output_compress_columns': ['obs', 'new_obs'], 'output_max_file_size': 67108864, 'multiagent': {'policies': {}, 'policy_mapping_fn': None, 'policies_to_train': None}, 'twin_q': False, 'policy_delay': 1, 'smooth_target_policy': False, 'target_noise': 0.2, 'target_noise_clip': 0.5, 'use_state_preprocessor': False, 'actor_hiddens': [400, 300], 'actor_hidden_activation': 'relu', 'critic_hiddens': [400, 300], 'critic_hidden_activation': 'relu', 'n_step': 3, 'exploration_should_anneal': False, 'schedule_max_timesteps': 100000, 'exploration_fraction': 0.1, 'exploration_final_scale': 0.02, 'exploration_noise_type': 'ou', 'exploration_ou_noise_scale': 1.0, 'exploration_ou_theta': 0.15, 'exploration_ou_sigma': 0.2, 'exploration_gaussian_sigma': 0.1, 'parameter_noise': False, 'pure_exploration_steps': 1000, 'buffer_size': 2000000, 'prioritized_replay': True, 'prioritized_replay_alpha': 0.6, 'prioritized_replay_beta': 0.4, 'beta_annealing_fraction': 0.2, 'final_prioritized_replay_beta': 0.4, 'prioritized_replay_eps': 1e-06, 'critic_lr': 0.001, 'actor_lr': 0.001, 'target_network_update_freq': 50000, 'tau': 1.0, 'use_huber': True, 'huber_threshold': 1.0, 'l2_reg': 1e-06, 'grad_norm_clipping': None, 'learning_starts': 50000, 'per_worker_exploration': True, 'worker_side_prioritization': True}",457.99351811408997,3874600,15,11
38.429179763801415,-10.612916702656648,18.54636366385301,150.0,636,{},{},"{'mean_env_wait_ms': 1.5424751093572462, 'mean_processing_ms': 1.165388908716326, 'mean_inference_ms': 2.163820745778208}",{},0,"{'min_exploration': 0.0, 'max_exploration': 0.4, 'num_target_updates': 74, 'num_steps_trained': 3731968, 'num_steps_sampled': 4132800, 'sample_throughput': 8042.461, 'train_throughput': 0.0, 'num_weight_syncs': 10330, 'num_samples_dropped': 55, 'learner_queue': {'size_count': 9343, 'size_mean': 0.22, 'size_std': 0.46, 'size_quantiles': [0.0, 0.0, 0.0, 1.0, 2.0]}, 'replay_shard_0': {'add_batch_time_ms': 14.575, 'replay_time_ms': 37.049, 'update_priorities_time_ms': 111.785, 'policy_default_policy': {'added_count': 1013800, 'sampled_count': 942592, 'est_size_bytes': 170500000, 'num_entries': 500000}}, 'learner': {'default_policy': {'mean_q': 4.930852890014648, 'max_q': 31.411901473999023, 'min_q': -0.6112639307975769}}}",258200,False,4132800,10040,16,551d10f630db4ab0a22be0a16a50447a,2019-07-24_03-11-42,1563930702,30.555577993392944,488.5490961074829,32336,navel-notebook-1,10.16.128.63,"{'monitor': False, 'log_level': 'INFO', 'callbacks': {'on_episode_start': None, 'on_episode_step': None, 'on_episode_end': None, 'on_sample_end': None, 'on_train_result': None, 'on_postprocess_traj': None}, 'ignore_worker_failures': False, 'use_eager': False, 'model': {'conv_filters': None, 'conv_activation': 'relu', 'fcnet_activation': 'tanh', 'fcnet_hiddens': [256, 256], 'free_log_std': False, 'squash_to_range': False, 'use_lstm': False, 'max_seq_len': 20, 'lstm_cell_size': 256, 'lstm_use_prev_action_reward': False, 'framestack': True, 'dim': 84, 'grayscale': False, 'zero_mean': True, 'custom_preprocessor': None, 'custom_model': None, 'custom_options': {}}, 'optimizer': {'max_weight_sync_delay': 400, 'num_replay_buffer_shards': 4, 'debug': False}, 'gamma': 0.99, 'horizon': None, 'soft_horizon': False, 'env_config': {'env_type': 'openai'}, 'env': 'RoboschoolReacher-v1', 'clip_rewards': False, 'clip_actions': True, 'preprocessor_pref': 'deepmind', 'lr': 0.0001, 'evaluation_interval': 5, 'evaluation_num_episodes': 10, 'evaluation_config': {'exploration_fraction': 0, 'exploration_final_eps': 0}, 'num_workers': 11, 'num_gpus': 1, 'num_cpus_per_worker': 1, 'num_gpus_per_worker': 0, 'custom_resources_per_worker': {}, 'num_cpus_for_driver': 1, 'num_envs_per_worker': 4, 'sample_batch_size': 50, 'train_batch_size': 512, 'batch_mode': 'truncate_episodes', 'sample_async': False, 'observation_filter': 'NoFilter', 'synchronize_filters': True, 'tf_session_args': {'intra_op_parallelism_threads': 2, 'inter_op_parallelism_threads': 2, 'gpu_options': {'allow_growth': True}, 'log_device_placement': False, 'device_count': {'CPU': 1}, 'allow_soft_placement': True}, 'local_tf_session_args': {'intra_op_parallelism_threads': 8, 'inter_op_parallelism_threads': 8}, 'compress_observations': False, 'collect_metrics_timeout': 180, 'metrics_smoothing_episodes': 100, 'remote_worker_envs': False, 'remote_env_batch_wait_ms': 0, 'min_iter_time_s': 30, 'timesteps_per_iteration': 25000, 'input': 'sampler', 'input_evaluation': ['is', 'wis'], 'postprocess_inputs': False, 'shuffle_buffer_size': 0, 'output': None, 'output_compress_columns': ['obs', 'new_obs'], 'output_max_file_size': 67108864, 'multiagent': {'policies': {}, 'policy_mapping_fn': None, 'policies_to_train': None}, 'twin_q': False, 'policy_delay': 1, 'smooth_target_policy': False, 'target_noise': 0.2, 'target_noise_clip': 0.5, 'use_state_preprocessor': False, 'actor_hiddens': [400, 300], 'actor_hidden_activation': 'relu', 'critic_hiddens': [400, 300], 'critic_hidden_activation': 'relu', 'n_step': 3, 'exploration_should_anneal': False, 'schedule_max_timesteps': 100000, 'exploration_fraction': 0.1, 'exploration_final_scale': 0.02, 'exploration_noise_type': 'ou', 'exploration_ou_noise_scale': 1.0, 'exploration_ou_theta': 0.15, 'exploration_ou_sigma': 0.2, 'exploration_gaussian_sigma': 0.1, 'parameter_noise': False, 'pure_exploration_steps': 1000, 'buffer_size': 2000000, 'prioritized_replay': True, 'prioritized_replay_alpha': 0.6, 'prioritized_replay_beta': 0.4, 'beta_annealing_fraction': 0.2, 'final_prioritized_replay_beta': 0.4, 'prioritized_replay_eps': 1e-06, 'critic_lr': 0.001, 'actor_lr': 0.001, 'target_network_update_freq': 50000, 'tau': 1.0, 'use_huber': True, 'huber_threshold': 1.0, 'l2_reg': 1e-06, 'grad_norm_clipping': None, 'learning_starts': 50000, 'per_worker_exploration': True, 'worker_side_prioritization': True}",488.5490961074829,4132800,16,11
38.82132243623693,-12.6880364358524,18.84651283482465,150.0,624,{},{},"{'mean_env_wait_ms': 1.5424223314848375, 'mean_processing_ms': 1.1640627528227403, 'mean_inference_ms': 2.1647876372194372}",{},0,"{'min_exploration': 0.0, 'max_exploration': 0.4, 'num_target_updates': 79, 'num_steps_trained': 3963904, 'num_steps_sampled': 4390000, 'sample_throughput': 0.0, 'train_throughput': 0.0, 'num_weight_syncs': 10972, 'num_samples_dropped': 55, 'learner_queue': {'size_count': 9795, 'size_mean': 0.3, 'size_std': 0.5, 'size_quantiles': [0.0, 0.0, 0.0, 1.0, 2.0]}, 'replay_shard_0': {'add_batch_time_ms': 18.582, 'replay_time_ms': 39.95, 'update_priorities_time_ms': 102.772, 'policy_default_policy': {'added_count': 1078000, 'sampled_count': 1000960, 'est_size_bytes': 170500000, 'num_entries': 500000}}, 'learner': {'default_policy': {'mean_q': 5.203509330749512, 'max_q': 35.171363830566406, 'min_q': -0.5951030850410461}}}",257200,False,4390000,10664,17,551d10f630db4ab0a22be0a16a50447a,2019-07-24_03-12-13,1563930733,30.306389570236206,518.8554856777191,32336,navel-notebook-1,10.16.128.63,"{'monitor': False, 'log_level': 'INFO', 'callbacks': {'on_episode_start': None, 'on_episode_step': None, 'on_episode_end': None, 'on_sample_end': None, 'on_train_result': None, 'on_postprocess_traj': None}, 'ignore_worker_failures': False, 'use_eager': False, 'model': {'conv_filters': None, 'conv_activation': 'relu', 'fcnet_activation': 'tanh', 'fcnet_hiddens': [256, 256], 'free_log_std': False, 'squash_to_range': False, 'use_lstm': False, 'max_seq_len': 20, 'lstm_cell_size': 256, 'lstm_use_prev_action_reward': False, 'framestack': True, 'dim': 84, 'grayscale': False, 'zero_mean': True, 'custom_preprocessor': None, 'custom_model': None, 'custom_options': {}}, 'optimizer': {'max_weight_sync_delay': 400, 'num_replay_buffer_shards': 4, 'debug': False}, 'gamma': 0.99, 'horizon': None, 'soft_horizon': False, 'env_config': {'env_type': 'openai'}, 'env': 'RoboschoolReacher-v1', 'clip_rewards': False, 'clip_actions': True, 'preprocessor_pref': 'deepmind', 'lr': 0.0001, 'evaluation_interval': 5, 'evaluation_num_episodes': 10, 'evaluation_config': {'exploration_fraction': 0, 'exploration_final_eps': 0}, 'num_workers': 11, 'num_gpus': 1, 'num_cpus_per_worker': 1, 'num_gpus_per_worker': 0, 'custom_resources_per_worker': {}, 'num_cpus_for_driver': 1, 'num_envs_per_worker': 4, 'sample_batch_size': 50, 'train_batch_size': 512, 'batch_mode': 'truncate_episodes', 'sample_async': False, 'observation_filter': 'NoFilter', 'synchronize_filters': True, 'tf_session_args': {'intra_op_parallelism_threads': 2, 'inter_op_parallelism_threads': 2, 'gpu_options': {'allow_growth': True}, 'log_device_placement': False, 'device_count': {'CPU': 1}, 'allow_soft_placement': True}, 'local_tf_session_args': {'intra_op_parallelism_threads': 8, 'inter_op_parallelism_threads': 8}, 'compress_observations': False, 'collect_metrics_timeout': 180, 'metrics_smoothing_episodes': 100, 'remote_worker_envs': False, 'remote_env_batch_wait_ms': 0, 'min_iter_time_s': 30, 'timesteps_per_iteration': 25000, 'input': 'sampler', 'input_evaluation': ['is', 'wis'], 'postprocess_inputs': False, 'shuffle_buffer_size': 0, 'output': None, 'output_compress_columns': ['obs', 'new_obs'], 'output_max_file_size': 67108864, 'multiagent': {'policies': {}, 'policy_mapping_fn': None, 'policies_to_train': None}, 'twin_q': False, 'policy_delay': 1, 'smooth_target_policy': False, 'target_noise': 0.2, 'target_noise_clip': 0.5, 'use_state_preprocessor': False, 'actor_hiddens': [400, 300], 'actor_hidden_activation': 'relu', 'critic_hiddens': [400, 300], 'critic_hidden_activation': 'relu', 'n_step': 3, 'exploration_should_anneal': False, 'schedule_max_timesteps': 100000, 'exploration_fraction': 0.1, 'exploration_final_scale': 0.02, 'exploration_noise_type': 'ou', 'exploration_ou_noise_scale': 1.0, 'exploration_ou_theta': 0.15, 'exploration_ou_sigma': 0.2, 'exploration_gaussian_sigma': 0.1, 'parameter_noise': False, 'pure_exploration_steps': 1000, 'buffer_size': 2000000, 'prioritized_replay': True, 'prioritized_replay_alpha': 0.6, 'prioritized_replay_beta': 0.4, 'beta_annealing_fraction': 0.2, 'final_prioritized_replay_beta': 0.4, 'prioritized_replay_eps': 1e-06, 'critic_lr': 0.001, 'actor_lr': 0.001, 'target_network_update_freq': 50000, 'tau': 1.0, 'use_huber': True, 'huber_threshold': 1.0, 'l2_reg': 1e-06, 'grad_norm_clipping': None, 'learning_starts': 50000, 'per_worker_exploration': True, 'worker_side_prioritization': True}",518.8554856777191,4390000,17,11
39.532616586577966,-6.905477229186718,18.262770127006757,150.0,612,{},{},"{'mean_env_wait_ms': 1.545103610054202, 'mean_processing_ms': 1.1646208444276016, 'mean_inference_ms': 2.168118011322831}",{},0,"{'min_exploration': 0.0, 'max_exploration': 0.4, 'num_target_updates': 83, 'num_steps_trained': 4197376, 'num_steps_sampled': 4648400, 'sample_throughput': 0.0, 'train_throughput': 23235.13, 'num_weight_syncs': 11618, 'num_samples_dropped': 55, 'learner_queue': {'size_count': 10251, 'size_mean': 0.2, 'size_std': 0.447213595499958, 'size_quantiles': [0.0, 0.0, 0.0, 1.0, 2.0]}, 'replay_shard_0': {'add_batch_time_ms': 13.705, 'replay_time_ms': 35.439, 'update_priorities_time_ms': 87.073, 'policy_default_policy': {'added_count': 1144000, 'sampled_count': 1057280, 'est_size_bytes': 170500000, 'num_entries': 500000}}, 'learner': {'default_policy': {'mean_q': 5.722394943237305, 'max_q': 33.37483596801758, 'min_q': -0.6119973063468933}}}",258400,False,4648400,11276,18,551d10f630db4ab0a22be0a16a50447a,2019-07-24_03-12-43,1563930763,30.48305106163025,549.3385367393494,32336,navel-notebook-1,10.16.128.63,"{'monitor': False, 'log_level': 'INFO', 'callbacks': {'on_episode_start': None, 'on_episode_step': None, 'on_episode_end': None, 'on_sample_end': None, 'on_train_result': None, 'on_postprocess_traj': None}, 'ignore_worker_failures': False, 'use_eager': False, 'model': {'conv_filters': None, 'conv_activation': 'relu', 'fcnet_activation': 'tanh', 'fcnet_hiddens': [256, 256], 'free_log_std': False, 'squash_to_range': False, 'use_lstm': False, 'max_seq_len': 20, 'lstm_cell_size': 256, 'lstm_use_prev_action_reward': False, 'framestack': True, 'dim': 84, 'grayscale': False, 'zero_mean': True, 'custom_preprocessor': None, 'custom_model': None, 'custom_options': {}}, 'optimizer': {'max_weight_sync_delay': 400, 'num_replay_buffer_shards': 4, 'debug': False}, 'gamma': 0.99, 'horizon': None, 'soft_horizon': False, 'env_config': {'env_type': 'openai'}, 'env': 'RoboschoolReacher-v1', 'clip_rewards': False, 'clip_actions': True, 'preprocessor_pref': 'deepmind', 'lr': 0.0001, 'evaluation_interval': 5, 'evaluation_num_episodes': 10, 'evaluation_config': {'exploration_fraction': 0, 'exploration_final_eps': 0}, 'num_workers': 11, 'num_gpus': 1, 'num_cpus_per_worker': 1, 'num_gpus_per_worker': 0, 'custom_resources_per_worker': {}, 'num_cpus_for_driver': 1, 'num_envs_per_worker': 4, 'sample_batch_size': 50, 'train_batch_size': 512, 'batch_mode': 'truncate_episodes', 'sample_async': False, 'observation_filter': 'NoFilter', 'synchronize_filters': True, 'tf_session_args': {'intra_op_parallelism_threads': 2, 'inter_op_parallelism_threads': 2, 'gpu_options': {'allow_growth': True}, 'log_device_placement': False, 'device_count': {'CPU': 1}, 'allow_soft_placement': True}, 'local_tf_session_args': {'intra_op_parallelism_threads': 8, 'inter_op_parallelism_threads': 8}, 'compress_observations': False, 'collect_metrics_timeout': 180, 'metrics_smoothing_episodes': 100, 'remote_worker_envs': False, 'remote_env_batch_wait_ms': 0, 'min_iter_time_s': 30, 'timesteps_per_iteration': 25000, 'input': 'sampler', 'input_evaluation': ['is', 'wis'], 'postprocess_inputs': False, 'shuffle_buffer_size': 0, 'output': None, 'output_compress_columns': ['obs', 'new_obs'], 'output_max_file_size': 67108864, 'multiagent': {'policies': {}, 'policy_mapping_fn': None, 'policies_to_train': None}, 'twin_q': False, 'policy_delay': 1, 'smooth_target_policy': False, 'target_noise': 0.2, 'target_noise_clip': 0.5, 'use_state_preprocessor': False, 'actor_hiddens': [400, 300], 'actor_hidden_activation': 'relu', 'critic_hiddens': [400, 300], 'critic_hidden_activation': 'relu', 'n_step': 3, 'exploration_should_anneal': False, 'schedule_max_timesteps': 100000, 'exploration_fraction': 0.1, 'exploration_final_scale': 0.02, 'exploration_noise_type': 'ou', 'exploration_ou_noise_scale': 1.0, 'exploration_ou_theta': 0.15, 'exploration_ou_sigma': 0.2, 'exploration_gaussian_sigma': 0.1, 'parameter_noise': False, 'pure_exploration_steps': 1000, 'buffer_size': 2000000, 'prioritized_replay': True, 'prioritized_replay_alpha': 0.6, 'prioritized_replay_beta': 0.4, 'beta_annealing_fraction': 0.2, 'final_prioritized_replay_beta': 0.4, 'prioritized_replay_eps': 1e-06, 'critic_lr': 0.001, 'actor_lr': 0.001, 'target_network_update_freq': 50000, 'tau': 1.0, 'use_huber': True, 'huber_threshold': 1.0, 'l2_reg': 1e-06, 'grad_norm_clipping': None, 'learning_starts': 50000, 'per_worker_exploration': True, 'worker_side_prioritization': True}",549.3385367393494,4648400,18,11
39.025318467992484,-15.205212498266372,18.765165059988107,150.0,620,{},{},"{'mean_env_wait_ms': 1.5461429162008395, 'mean_processing_ms': 1.1657011093130394, 'mean_inference_ms': 2.169148374810556}",{},0,"{'min_exploration': 0.0, 'max_exploration': 0.4, 'num_target_updates': 88, 'num_steps_trained': 4431872, 'num_steps_sampled': 4906400, 'sample_throughput': 12261.896, 'train_throughput': 10463.484, 'num_weight_syncs': 12264, 'num_samples_dropped': 55, 'learner_queue': {'size_count': 10710, 'size_mean': 0.24, 'size_std': 0.4270831300812525, 'size_quantiles': [0.0, 0.0, 0.0, 1.0, 1.0]}, 'replay_shard_0': {'add_batch_time_ms': 9.961, 'replay_time_ms': 30.583, 'update_priorities_time_ms': 98.649, 'policy_default_policy': {'added_count': 1206000, 'sampled_count': 1116672, 'est_size_bytes': 170500000, 'num_entries': 500000}}, 'learner': {'default_policy': {'mean_q': 5.201657295227051, 'max_q': 34.83788299560547, 'min_q': -0.47058558464050293}}}",258000,False,4906400,11896,19,551d10f630db4ab0a22be0a16a50447a,2019-07-24_03-13-14,1563930794,30.4773850440979,579.8159217834473,32336,navel-notebook-1,10.16.128.63,"{'monitor': False, 'log_level': 'INFO', 'callbacks': {'on_episode_start': None, 'on_episode_step': None, 'on_episode_end': None, 'on_sample_end': None, 'on_train_result': None, 'on_postprocess_traj': None}, 'ignore_worker_failures': False, 'use_eager': False, 'model': {'conv_filters': None, 'conv_activation': 'relu', 'fcnet_activation': 'tanh', 'fcnet_hiddens': [256, 256], 'free_log_std': False, 'squash_to_range': False, 'use_lstm': False, 'max_seq_len': 20, 'lstm_cell_size': 256, 'lstm_use_prev_action_reward': False, 'framestack': True, 'dim': 84, 'grayscale': False, 'zero_mean': True, 'custom_preprocessor': None, 'custom_model': None, 'custom_options': {}}, 'optimizer': {'max_weight_sync_delay': 400, 'num_replay_buffer_shards': 4, 'debug': False}, 'gamma': 0.99, 'horizon': None, 'soft_horizon': False, 'env_config': {'env_type': 'openai'}, 'env': 'RoboschoolReacher-v1', 'clip_rewards': False, 'clip_actions': True, 'preprocessor_pref': 'deepmind', 'lr': 0.0001, 'evaluation_interval': 5, 'evaluation_num_episodes': 10, 'evaluation_config': {'exploration_fraction': 0, 'exploration_final_eps': 0}, 'num_workers': 11, 'num_gpus': 1, 'num_cpus_per_worker': 1, 'num_gpus_per_worker': 0, 'custom_resources_per_worker': {}, 'num_cpus_for_driver': 1, 'num_envs_per_worker': 4, 'sample_batch_size': 50, 'train_batch_size': 512, 'batch_mode': 'truncate_episodes', 'sample_async': False, 'observation_filter': 'NoFilter', 'synchronize_filters': True, 'tf_session_args': {'intra_op_parallelism_threads': 2, 'inter_op_parallelism_threads': 2, 'gpu_options': {'allow_growth': True}, 'log_device_placement': False, 'device_count': {'CPU': 1}, 'allow_soft_placement': True}, 'local_tf_session_args': {'intra_op_parallelism_threads': 8, 'inter_op_parallelism_threads': 8}, 'compress_observations': False, 'collect_metrics_timeout': 180, 'metrics_smoothing_episodes': 100, 'remote_worker_envs': False, 'remote_env_batch_wait_ms': 0, 'min_iter_time_s': 30, 'timesteps_per_iteration': 25000, 'input': 'sampler', 'input_evaluation': ['is', 'wis'], 'postprocess_inputs': False, 'shuffle_buffer_size': 0, 'output': None, 'output_compress_columns': ['obs', 'new_obs'], 'output_max_file_size': 67108864, 'multiagent': {'policies': {}, 'policy_mapping_fn': None, 'policies_to_train': None}, 'twin_q': False, 'policy_delay': 1, 'smooth_target_policy': False, 'target_noise': 0.2, 'target_noise_clip': 0.5, 'use_state_preprocessor': False, 'actor_hiddens': [400, 300], 'actor_hidden_activation': 'relu', 'critic_hiddens': [400, 300], 'critic_hidden_activation': 'relu', 'n_step': 3, 'exploration_should_anneal': False, 'schedule_max_timesteps': 100000, 'exploration_fraction': 0.1, 'exploration_final_scale': 0.02, 'exploration_noise_type': 'ou', 'exploration_ou_noise_scale': 1.0, 'exploration_ou_theta': 0.15, 'exploration_ou_sigma': 0.2, 'exploration_gaussian_sigma': 0.1, 'parameter_noise': False, 'pure_exploration_steps': 1000, 'buffer_size': 2000000, 'prioritized_replay': True, 'prioritized_replay_alpha': 0.6, 'prioritized_replay_beta': 0.4, 'beta_annealing_fraction': 0.2, 'final_prioritized_replay_beta': 0.4, 'prioritized_replay_eps': 1e-06, 'critic_lr': 0.001, 'actor_lr': 0.001, 'target_network_update_freq': 50000, 'tau': 1.0, 'use_huber': True, 'huber_threshold': 1.0, 'l2_reg': 1e-06, 'grad_norm_clipping': None, 'learning_starts': 50000, 'per_worker_exploration': True, 'worker_side_prioritization': True}",579.8159217834473,4906400,19,11
38.29030308136971,-11.145462147001993,18.562407781823914,150.0,624,{},{},"{'mean_env_wait_ms': 1.5456047961665114, 'mean_processing_ms': 1.165685133734719, 'mean_inference_ms': 2.1693571611481794}",{},0,"{'min_exploration': 0.0, 'max_exploration': 0.4, 'num_target_updates': 92, 'num_steps_trained': 4663296, 'num_steps_sampled': 5165200, 'sample_throughput': 17994.354, 'train_throughput': 0.0, 'num_weight_syncs': 12909, 'num_samples_dropped': 55, 'learner_queue': {'size_count': 11161, 'size_mean': 0.3, 'size_std': 0.49999999999999994, 'size_quantiles': [0.0, 0.0, 0.0, 1.0, 2.0]}, 'replay_shard_0': {'add_batch_time_ms': 11.63, 'replay_time_ms': 39.99, 'update_priorities_time_ms': 101.893, 'policy_default_policy': {'added_count': 1266000, 'sampled_count': 1176064, 'est_size_bytes': 170500000, 'num_entries': 500000}}, 'learner': {'default_policy': {'mean_q': 4.556972026824951, 'max_q': 31.31998062133789, 'min_q': -0.7136208415031433}}}",258800,False,5165200,12520,20,551d10f630db4ab0a22be0a16a50447a,2019-07-24_03-13-44,1563930824,30.53963875770569,610.355560541153,32336,navel-notebook-1,10.16.128.63,"{'monitor': False, 'log_level': 'INFO', 'callbacks': {'on_episode_start': None, 'on_episode_step': None, 'on_episode_end': None, 'on_sample_end': None, 'on_train_result': None, 'on_postprocess_traj': None}, 'ignore_worker_failures': False, 'use_eager': False, 'model': {'conv_filters': None, 'conv_activation': 'relu', 'fcnet_activation': 'tanh', 'fcnet_hiddens': [256, 256], 'free_log_std': False, 'squash_to_range': False, 'use_lstm': False, 'max_seq_len': 20, 'lstm_cell_size': 256, 'lstm_use_prev_action_reward': False, 'framestack': True, 'dim': 84, 'grayscale': False, 'zero_mean': True, 'custom_preprocessor': None, 'custom_model': None, 'custom_options': {}}, 'optimizer': {'max_weight_sync_delay': 400, 'num_replay_buffer_shards': 4, 'debug': False}, 'gamma': 0.99, 'horizon': None, 'soft_horizon': False, 'env_config': {'env_type': 'openai'}, 'env': 'RoboschoolReacher-v1', 'clip_rewards': False, 'clip_actions': True, 'preprocessor_pref': 'deepmind', 'lr': 0.0001, 'evaluation_interval': 5, 'evaluation_num_episodes': 10, 'evaluation_config': {'exploration_fraction': 0, 'exploration_final_eps': 0}, 'num_workers': 11, 'num_gpus': 1, 'num_cpus_per_worker': 1, 'num_gpus_per_worker': 0, 'custom_resources_per_worker': {}, 'num_cpus_for_driver': 1, 'num_envs_per_worker': 4, 'sample_batch_size': 50, 'train_batch_size': 512, 'batch_mode': 'truncate_episodes', 'sample_async': False, 'observation_filter': 'NoFilter', 'synchronize_filters': True, 'tf_session_args': {'intra_op_parallelism_threads': 2, 'inter_op_parallelism_threads': 2, 'gpu_options': {'allow_growth': True}, 'log_device_placement': False, 'device_count': {'CPU': 1}, 'allow_soft_placement': True}, 'local_tf_session_args': {'intra_op_parallelism_threads': 8, 'inter_op_parallelism_threads': 8}, 'compress_observations': False, 'collect_metrics_timeout': 180, 'metrics_smoothing_episodes': 100, 'remote_worker_envs': False, 'remote_env_batch_wait_ms': 0, 'min_iter_time_s': 30, 'timesteps_per_iteration': 25000, 'input': 'sampler', 'input_evaluation': ['is', 'wis'], 'postprocess_inputs': False, 'shuffle_buffer_size': 0, 'output': None, 'output_compress_columns': ['obs', 'new_obs'], 'output_max_file_size': 67108864, 'multiagent': {'policies': {}, 'policy_mapping_fn': None, 'policies_to_train': None}, 'twin_q': False, 'policy_delay': 1, 'smooth_target_policy': False, 'target_noise': 0.2, 'target_noise_clip': 0.5, 'use_state_preprocessor': False, 'actor_hiddens': [400, 300], 'actor_hidden_activation': 'relu', 'critic_hiddens': [400, 300], 'critic_hidden_activation': 'relu', 'n_step': 3, 'exploration_should_anneal': False, 'schedule_max_timesteps': 100000, 'exploration_fraction': 0.1, 'exploration_final_scale': 0.02, 'exploration_noise_type': 'ou', 'exploration_ou_noise_scale': 1.0, 'exploration_ou_theta': 0.15, 'exploration_ou_sigma': 0.2, 'exploration_gaussian_sigma': 0.1, 'parameter_noise': False, 'pure_exploration_steps': 1000, 'buffer_size': 2000000, 'prioritized_replay': True, 'prioritized_replay_alpha': 0.6, 'prioritized_replay_beta': 0.4, 'beta_annealing_fraction': 0.2, 'final_prioritized_replay_beta': 0.4, 'prioritized_replay_eps': 1e-06, 'critic_lr': 0.001, 'actor_lr': 0.001, 'target_network_update_freq': 50000, 'tau': 1.0, 'use_huber': True, 'huber_threshold': 1.0, 'l2_reg': 1e-06, 'grad_norm_clipping': None, 'learning_starts': 50000, 'per_worker_exploration': True, 'worker_side_prioritization': True}",610.355560541153,5165200,20,11
